EESchema Schematic File Version 2
LIBS:power
LIBS:device
LIBS:transistors
LIBS:conn
LIBS:linear
LIBS:regul
LIBS:74xx
LIBS:cmos4000
LIBS:adc-dac
LIBS:memory
LIBS:xilinx
LIBS:microcontrollers
LIBS:dsp
LIBS:microchip
LIBS:analog_switches
LIBS:motorola
LIBS:texas
LIBS:intel
LIBS:audio
LIBS:interface
LIBS:digital-audio
LIBS:philips
LIBS:display
LIBS:cypress
LIBS:siliconi
LIBS:opto
LIBS:atmel
LIBS:contrib
LIBS:valves
LIBS:TC4427AEOA
LIBS:ESP32-board-cache
EELAYER 25 0
EELAYER END
$Descr A4 11693 8268
encoding utf-8
Sheet 1 1
Title ""
Date ""
Rev ""
Comp ""
Comment1 ""
Comment2 ""
Comment3 ""
Comment4 ""
$EndDescr
$Comp
L TC4427AEOA U2
U 1 1 5A7762D7
P 8550 4060
F 0 "U2" H 8369 4313 50  0000 L BNN
F 1 "TC4427AEOA" H 8299 3456 50  0000 L BNN
F 2 "Housings_DIP:DIP-8_W7.62mm" H 8550 4060 50  0001 L BNN
F 3 "IC MOSFET DVR 1.5A DUAL HS 8SOIC" H 8550 4060 50  0001 L BNN
F 4 "Good" H 8550 4060 50  0001 L BNN "Field4"
F 5 "Microchip" H 8550 4060 50  0001 L BNN "Field5"
F 6 "1.05 USD" H 8550 4060 50  0001 L BNN "Field6"
F 7 "SOIC-8 Microchip" H 8550 4060 50  0001 L BNN "Field7"
F 8 "TC4427AEOA" H 8550 4060 50  0001 L BNN "Field8"
	1    8550 4060
	-1   0    0    1   
$EndComp
Wire Wire Line
	7850 4060 7660 4060
Wire Wire Line
	7660 4060 7660 4190
Wire Wire Line
	7660 4190 7350 4190
Wire Wire Line
	7670 3220 7340 3220
Wire Wire Line
	7850 3960 7670 3960
Wire Wire Line
	7670 3960 7670 3220
$Comp
L GND #PWR01
U 1 1 5A783F22
P 7420 3420
F 0 "#PWR01" H 7420 3170 50  0001 C CNN
F 1 "GND" H 7420 3270 50  0000 C CNN
F 2 "" H 7420 3420 50  0001 C CNN
F 3 "" H 7420 3420 50  0001 C CNN
	1    7420 3420
	0    -1   -1   0   
$EndComp
$Comp
L GND #PWR02
U 1 1 5A783FCD
P 7440 4390
F 0 "#PWR02" H 7440 4140 50  0001 C CNN
F 1 "GND" H 7440 4240 50  0000 C CNN
F 2 "" H 7440 4390 50  0001 C CNN
F 3 "" H 7440 4390 50  0001 C CNN
	1    7440 4390
	0    -1   -1   0   
$EndComp
$Comp
L GND #PWR03
U 1 1 5A78405D
P 9310 3760
F 0 "#PWR03" H 9310 3510 50  0001 C CNN
F 1 "GND" H 9310 3610 50  0000 C CNN
F 2 "" H 9310 3760 50  0001 C CNN
F 3 "" H 9310 3760 50  0001 C CNN
	1    9310 3760
	0    -1   -1   0   
$EndComp
Wire Wire Line
	9310 3760 9250 3760
Wire Wire Line
	7340 3420 7420 3420
Wire Wire Line
	7350 4390 7440 4390
$Comp
L VDD #PWR04
U 1 1 5A7840FB
P 9400 3860
F 0 "#PWR04" H 9400 3710 50  0001 C CNN
F 1 "VDD" H 9400 4010 50  0000 C CNN
F 2 "" H 9400 3860 50  0001 C CNN
F 3 "" H 9400 3860 50  0001 C CNN
	1    9400 3860
	0    1    1    0   
$EndComp
$Comp
L VDD #PWR05
U 1 1 5A784122
P 7420 3620
F 0 "#PWR05" H 7420 3470 50  0001 C CNN
F 1 "VDD" H 7420 3770 50  0000 C CNN
F 2 "" H 7420 3620 50  0001 C CNN
F 3 "" H 7420 3620 50  0001 C CNN
	1    7420 3620
	0    1    1    0   
$EndComp
$Comp
L VDD #PWR06
U 1 1 5A784142
P 7430 4590
F 0 "#PWR06" H 7430 4440 50  0001 C CNN
F 1 "VDD" H 7430 4740 50  0000 C CNN
F 2 "" H 7430 4590 50  0001 C CNN
F 3 "" H 7430 4590 50  0001 C CNN
	1    7430 4590
	0    1    1    0   
$EndComp
Wire Wire Line
	7430 4590 7350 4590
Wire Wire Line
	7420 3620 7340 3620
Wire Wire Line
	9400 3860 9250 3860
$Comp
L GND #PWR07
U 1 1 5A78429D
P 4780 810
F 0 "#PWR07" H 4780 560 50  0001 C CNN
F 1 "GND" H 4780 660 50  0000 C CNN
F 2 "" H 4780 810 50  0001 C CNN
F 3 "" H 4780 810 50  0001 C CNN
	1    4780 810 
	-1   0    0    1   
$EndComp
Wire Wire Line
	4780 980  4780 810 
$Comp
L +5V #PWR08
U 1 1 5A78430E
P 4240 1180
F 0 "#PWR08" H 4240 1030 50  0001 C CNN
F 1 "+5V" H 4240 1320 50  0000 C CNN
F 2 "" H 4240 1180 50  0001 C CNN
F 3 "" H 4240 1180 50  0001 C CNN
	1    4240 1180
	1    0    0    -1  
$EndComp
Wire Wire Line
	4240 1180 4380 1180
$Comp
L Screw_Terminal_1x04 J7
U 1 1 5A78471C
P 7390 1330
F 0 "J7" H 7390 1780 50  0000 C TNN
F 1 "Screw_Terminal_1x04" V 7240 1330 50  0000 C TNN
F 2 "Pin_Headers:Pin_Header_Straight_1x04_Pitch2.54mm" H 7390 905 50  0001 C CNN
F 3 "" H 7365 1530 50  0001 C CNN
	1    7390 1330
	0    1    1    0   
$EndComp
$Comp
L +3.3V #PWR09
U 1 1 5A784814
P 7690 2330
F 0 "#PWR09" H 7690 2180 50  0001 C CNN
F 1 "+3.3V" H 7690 2470 50  0000 C CNN
F 2 "" H 7690 2330 50  0001 C CNN
F 3 "" H 7690 2330 50  0001 C CNN
	1    7690 2330
	-1   0    0    1   
$EndComp
$Comp
L GND #PWR010
U 1 1 5A78483A
P 7490 1740
F 0 "#PWR010" H 7490 1490 50  0001 C CNN
F 1 "GND" H 7490 1590 50  0000 C CNN
F 2 "" H 7490 1740 50  0001 C CNN
F 3 "" H 7490 1740 50  0001 C CNN
	1    7490 1740
	1    0    0    -1  
$EndComp
Wire Wire Line
	7690 1530 7690 2330
Wire Wire Line
	7490 1530 7490 1740
Text Notes 3360 2060 1    60   ~ 0
Mains Relays
Text Notes 6930 4440 1    60   ~ 0
Fan/LED (PWM) Control
Text Notes 7280 1100 0    60   ~ 0
I2C
$Comp
L Screw_Terminal_1x03 J8
U 1 1 5A929537
P 8650 1350
F 0 "J8" H 8650 1700 50  0000 C TNN
F 1 "Screw_Terminal_1x03" V 8500 1350 50  0000 C TNN
F 2 "Pin_Headers:Pin_Header_Straight_1x03_Pitch2.54mm" H 8650 1025 50  0001 C CNN
F 3 "" H 8625 1450 50  0001 C CNN
	1    8650 1350
	0    1    1    0   
$EndComp
Text Notes 8450 1140 0    60   ~ 0
OneWire
$Comp
L +3.3V #PWR011
U 1 1 5A929668
P 8850 1860
F 0 "#PWR011" H 8850 1710 50  0001 C CNN
F 1 "+3.3V" H 8850 2000 50  0000 C CNN
F 2 "" H 8850 1860 50  0001 C CNN
F 3 "" H 8850 1860 50  0001 C CNN
	1    8850 1860
	-1   0    0    1   
$EndComp
$Comp
L GND #PWR012
U 1 1 5A929691
P 8450 1860
F 0 "#PWR012" H 8450 1610 50  0001 C CNN
F 1 "GND" H 8450 1710 50  0000 C CNN
F 2 "" H 8450 1860 50  0001 C CNN
F 3 "" H 8450 1860 50  0001 C CNN
	1    8450 1860
	1    0    0    -1  
$EndComp
Wire Wire Line
	8450 1860 8450 1550
$Comp
L R R3
U 1 1 5A92984B
P 8700 1740
F 0 "R3" V 8780 1740 50  0000 C CNN
F 1 "4.7k" V 8700 1740 50  0000 C CNN
F 2 "Resistors_THT:R_Axial_DIN0207_L6.3mm_D2.5mm_P7.62mm_Horizontal" V 8630 1740 50  0001 C CNN
F 3 "" H 8700 1740 50  0001 C CNN
	1    8700 1740
	0    -1   -1   0   
$EndComp
Wire Wire Line
	8550 1550 8550 2080
Wire Wire Line
	8550 1550 8650 1550
Text GLabel 5180 1680 2    60   Input ~ 0
D17
Text GLabel 5180 1780 2    60   Input ~ 0
D16
Text GLabel 7970 4790 2    60   Input ~ 0
D14
Connection ~ 8550 1740
Wire Wire Line
	8850 1550 8850 1860
Connection ~ 8850 1740
Text GLabel 8060 3080 2    60   Input ~ 0
D27
Text GLabel 9600 3960 2    60   Input ~ 0
D25
Text GLabel 9380 4060 2    60   Input ~ 0
D26
Wire Wire Line
	9250 4060 9380 4060
Wire Wire Line
	9250 3960 9600 3960
Text GLabel 5180 1980 2    60   Input ~ 0
D13
Text GLabel 5180 1880 2    60   Input ~ 0
D4
Text GLabel 5180 1580 2    60   Input ~ 0
D5
Text GLabel 5180 1480 2    60   Input ~ 0
D18
Text GLabel 5180 1380 2    60   Input ~ 0
D23
$Comp
L Screw_Terminal_1x02 J4
U 1 1 5A93DA7C
P 6140 1300
F 0 "J4" H 6140 1550 50  0000 C TNN
F 1 "Screw_Terminal_1x02" V 5990 1300 50  0000 C TNN
F 2 "Pin_Headers:Pin_Header_Straight_1x02_Pitch2.54mm" H 6140 1075 50  0001 C CNN
F 3 "" H 6115 1300 50  0001 C CNN
	1    6140 1300
	0    1    1    0   
$EndComp
$Comp
L +5V #PWR013
U 1 1 5A93DB4B
P 6240 1500
F 0 "#PWR013" H 6240 1350 50  0001 C CNN
F 1 "+5V" H 6240 1640 50  0000 C CNN
F 2 "" H 6240 1500 50  0001 C CNN
F 3 "" H 6240 1500 50  0001 C CNN
	1    6240 1500
	-1   0    0    1   
$EndComp
$Comp
L GND #PWR014
U 1 1 5A93DB88
P 6040 1500
F 0 "#PWR014" H 6040 1250 50  0001 C CNN
F 1 "GND" H 6040 1350 50  0000 C CNN
F 2 "" H 6040 1500 50  0001 C CNN
F 3 "" H 6040 1500 50  0001 C CNN
	1    6040 1500
	1    0    0    -1  
$EndComp
$Comp
L CONN_01X13 J1
U 1 1 5A9672A8
P 1460 1430
F 0 "J1" H 1460 2130 50  0000 C CNN
F 1 "CONN_01X13" V 1560 1430 50  0000 C CNN
F 2 "Pin_Headers:Pin_Header_Straight_1x13_Pitch2.54mm" H 1460 1430 50  0001 C CNN
F 3 "" H 1460 1430 50  0001 C CNN
	1    1460 1430
	1    0    0    -1  
$EndComp
$Comp
L CONN_01X13 J2
U 1 1 5A967380
P 2270 1420
F 0 "J2" H 2270 2120 50  0000 C CNN
F 1 "CONN_01X13" V 2370 1420 50  0000 C CNN
F 2 "Pin_Headers:Pin_Header_Straight_1x13_Pitch2.54mm" H 2270 1420 50  0001 C CNN
F 3 "" H 2270 1420 50  0001 C CNN
	1    2270 1420
	1    0    0    -1  
$EndComp
Text GLabel 1260 1530 0    60   Output ~ 0
D25
Text GLabel 1260 1630 0    60   Output ~ 0
D26
$Comp
L GND #PWR015
U 1 1 5A967847
P 1260 2030
F 0 "#PWR015" H 1260 1780 50  0001 C CNN
F 1 "GND" H 1260 1880 50  0000 C CNN
F 2 "" H 1260 2030 50  0001 C CNN
F 3 "" H 1260 2030 50  0001 C CNN
	1    1260 2030
	0    1    1    0   
$EndComp
$Comp
L +3.3V #PWR016
U 1 1 5A967898
P 2070 820
F 0 "#PWR016" H 2070 670 50  0001 C CNN
F 1 "+3.3V" H 2070 960 50  0000 C CNN
F 2 "" H 2070 820 50  0001 C CNN
F 3 "" H 2070 820 50  0001 C CNN
	1    2070 820 
	0    -1   -1   0   
$EndComp
Text GLabel 2070 2020 0    60   Output ~ 0
D13
Text GLabel 2070 1920 0    60   Output ~ 0
D15
Text GLabel 2070 1620 0    60   Output ~ 0
D4
Text GLabel 2070 1320 0    60   Output ~ 0
D5
Text GLabel 2070 1220 0    60   Output ~ 0
D18
Text GLabel 2070 1120 0    60   Output ~ 0
D23
Text GLabel 1260 1730 0    60   Output ~ 0
D27
Text GLabel 2070 1420 0    60   Output ~ 0
D17
Text GLabel 2070 1520 0    60   Output ~ 0
D16
Text GLabel 1260 1830 0    60   Output ~ 0
D14
Text GLabel 2070 1020 0    60   Output ~ 0
D19
Text GLabel 1260 1430 0    60   BiDi ~ 0
D33
Text GLabel 1260 1330 0    60   BiDi ~ 0
D32
Text GLabel 5180 1280 2    60   Input ~ 0
D19
Text GLabel 8550 2080 3    60   BiDi ~ 0
D15
$Comp
L Screw_Terminal_1x04 J6
U 1 1 5C5D5CA0
P 7150 4490
F 0 "J6" H 7150 4940 50  0000 C TNN
F 1 "Screw_Terminal_1x04" V 7000 4490 50  0000 C TNN
F 2 "Pin_Headers:Pin_Header_Straight_1x04_Pitch2.54mm" H 7150 4065 50  0001 C CNN
F 3 "" H 7125 4690 50  0001 C CNN
	1    7150 4490
	1    0    0    -1  
$EndComp
$Comp
L Screw_Terminal_1x04 J5
U 1 1 5C5D5CF8
P 7140 3520
F 0 "J5" H 7140 3970 50  0000 C TNN
F 1 "Screw_Terminal_1x04" V 6990 3520 50  0000 C TNN
F 2 "Pin_Headers:Pin_Header_Straight_1x04_Pitch2.54mm" H 7140 3095 50  0001 C CNN
F 3 "" H 7115 3720 50  0001 C CNN
	1    7140 3520
	1    0    0    -1  
$EndComp
Text GLabel 7090 2220 3    60   BiDi ~ 0
D33
Text GLabel 7290 2220 3    60   BiDi ~ 0
D32
$Comp
L Screw_Terminal_01x08 J3
U 1 1 5C5D801E
P 3610 1680
F 0 "J3" H 3610 2080 50  0000 C CNN
F 1 "Screw_Terminal_01x08" V 3760 1650 50  0000 C CNN
F 2 "Pin_Headers:Pin_Header_Straight_1x08_Pitch2.54mm" H 3610 1680 50  0001 C CNN
F 3 "" H 3610 1680 50  0001 C CNN
	1    3610 1680
	-1   0    0    1   
$EndComp
$Comp
L ULN2803A U1
U 1 1 5A7837D6
P 4780 1680
F 0 "U1" H 4780 2205 50  0000 C CNN
F 1 "ULN2803A" H 4780 2130 50  0000 C CNN
F 2 "Housings_DIP:DIP-18_W7.62mm" H 4830 1030 50  0001 L CNN
F 3 "" H 4880 1580 50  0001 C CNN
	1    4780 1680
	-1   0    0    1   
$EndComp
Wire Wire Line
	4380 1980 3810 1980
Wire Wire Line
	4380 1880 3810 1880
Wire Wire Line
	4380 1780 3810 1780
Wire Wire Line
	4380 1680 3810 1680
Wire Wire Line
	4380 1580 3810 1580
Wire Wire Line
	4380 1480 3810 1480
Wire Wire Line
	4380 1380 3810 1380
Wire Wire Line
	4380 1280 3810 1280
Wire Wire Line
	7290 1530 7290 2220
Wire Wire Line
	7090 1530 7090 2220
$Comp
L R R2
U 1 1 5C5D8E1C
P 7440 2220
F 0 "R2" V 7520 2220 50  0000 C CNN
F 1 "10k" V 7440 2220 50  0000 C CNN
F 2 "Resistors_THT:R_Axial_DIN0207_L6.3mm_D2.5mm_P7.62mm_Horizontal" V 7370 2220 50  0001 C CNN
F 3 "" H 7440 2220 50  0001 C CNN
	1    7440 2220
	0    1    1    0   
$EndComp
$Comp
L R R1
U 1 1 5C5D8EDE
P 7290 2050
F 0 "R1" V 7370 2050 50  0000 C CNN
F 1 "10k" V 7290 2050 50  0000 C CNN
F 2 "Resistors_THT:R_Axial_DIN0207_L6.3mm_D2.5mm_P7.62mm_Horizontal" V 7220 2050 50  0001 C CNN
F 3 "" H 7290 2050 50  0001 C CNN
	1    7290 2050
	0    1    1    0   
$EndComp
Wire Wire Line
	7590 2220 7690 2220
Connection ~ 7690 2220
Wire Wire Line
	7440 2050 7690 2050
Connection ~ 7690 2050
Wire Wire Line
	7140 2050 7090 2050
Connection ~ 7090 2050
$Comp
L R R5
U 1 1 5C6293F6
P 7910 3080
F 0 "R5" V 7990 3080 50  0000 C CNN
F 1 "1.1k" V 7910 3080 50  0000 C CNN
F 2 "Resistors_THT:R_Axial_DIN0207_L6.3mm_D2.5mm_P7.62mm_Horizontal" V 7840 3080 50  0001 C CNN
F 3 "" H 7910 3080 50  0001 C CNN
	1    7910 3080
	0    1    1    0   
$EndComp
Wire Wire Line
	7340 3820 7760 3820
Wire Wire Line
	7760 3820 7760 3080
$Comp
L R R4
U 1 1 5C629596
P 7820 4790
F 0 "R4" V 7900 4790 50  0000 C CNN
F 1 "1.1k" V 7820 4790 50  0000 C CNN
F 2 "Resistors_THT:R_Axial_DIN0207_L6.3mm_D2.5mm_P7.62mm_Horizontal" V 7750 4790 50  0001 C CNN
F 3 "" H 7820 4790 50  0001 C CNN
	1    7820 4790
	0    1    1    0   
$EndComp
Wire Wire Line
	7350 4790 7670 4790
$EndSCHEMATC
