(module LOGO (layer F.Cu)
  (at 0 0)
 (fp_text reference "G***" (at 0 0) (layer F.SilkS) hide
  (effects (font (thickness 0.3)))
  )
  (fp_text value "LOGO" (at 0.75 0) (layer F.SilkS) hide
  (effects (font (thickness 0.3)))
  )
  (fp_poly (pts (xy 5.080000 5.080000) (xy -5.080000 5.080000) (xy -5.080000 0.234913) (xy -4.316935 0.234913) (xy -4.311138 0.413022) (xy -4.297206 0.587198) (xy -4.275083 0.758211) (xy -4.244717 0.926835)
     (xy -4.206053 1.093839) (xy -4.179702 1.190625) (xy -4.146416 1.300588) (xy -4.108118 1.416611) (xy -4.065781 1.536023) (xy -4.020376 1.656152) (xy -3.972875 1.774329) (xy -3.934174 1.865312)
     (xy -3.920320 1.895868) (xy -3.902276 1.933885) (xy -3.880963 1.977559) (xy -3.857306 2.025084) (xy -3.832225 2.074655) (xy -3.806643 2.124468) (xy -3.781483 2.172717) (xy -3.757668 2.217597)
     (xy -3.736119 2.257304) (xy -3.717760 2.290032) (xy -3.712420 2.299229) (xy -3.602749 2.475835) (xy -3.485201 2.645599) (xy -3.359698 2.808592) (xy -3.226164 2.964888) (xy -3.084524 3.114561)
     (xy -2.934699 3.257683) (xy -2.776615 3.394328) (xy -2.610194 3.524569) (xy -2.435361 3.648480) (xy -2.252038 3.766134) (xy -2.071688 3.871208) (xy -2.046262 3.885551) (xy -2.024101 3.898453)
     (xy -2.006872 3.908909) (xy -1.996246 3.915918) (xy -1.993716 3.918077) (xy -1.988230 3.930331) (xy -1.981857 3.951754) (xy -1.974929 3.981002) (xy -1.967776 4.016730) (xy -1.963437 4.041172)
     (xy -1.953854 4.091594) (xy -1.943673 4.132445) (xy -1.932456 4.164735) (xy -1.919762 4.189474) (xy -1.905156 4.207673) (xy -1.888197 4.220342) (xy -1.884977 4.222055) (xy -1.866260 4.230877)
     (xy -1.851605 4.235257) (xy -1.837498 4.235239) (xy -1.820426 4.230867) (xy -1.799298 4.223119) (xy -1.761350 4.211147) (xy -1.728885 4.207157) (xy -1.700245 4.211318) (xy -1.673771 4.223802)
     (xy -1.655209 4.237963) (xy -1.643572 4.247697) (xy -1.635409 4.253640) (xy -1.633526 4.254500) (xy -1.628209 4.251693) (xy -1.616268 4.244155) (xy -1.599760 4.233207) (xy -1.589245 4.226050)
     (xy -1.536162 4.192503) (xy -1.486103 4.166695) (xy -1.439834 4.148944) (xy -1.398121 4.139565) (xy -1.376328 4.138087) (xy -1.356254 4.139271) (xy -1.336340 4.143300) (xy -1.314865 4.150895)
     (xy -1.290112 4.162779) (xy -1.260360 4.179674) (xy -1.224790 4.201730) (xy -1.195476 4.220108) (xy -1.169066 4.235753) (xy -1.144381 4.248921) (xy -1.120240 4.259869) (xy -1.095464 4.268852)
     (xy -1.068874 4.276126) (xy -1.039290 4.281947) (xy -1.005532 4.286571) (xy -0.966420 4.290255) (xy -0.920776 4.293252) (xy -0.867418 4.295821) (xy -0.805169 4.298216) (xy -0.775230 4.299262)
     (xy -0.696082 4.302259) (xy -0.625614 4.305645) (xy -0.561922 4.309667) (xy -0.503102 4.314572) (xy -0.447253 4.320608) (xy -0.392470 4.328019) (xy -0.336850 4.337055) (xy -0.278491 4.347961)
     (xy -0.215489 4.360984) (xy -0.145940 4.376372) (xy -0.100542 4.386780) (xy -0.053572 4.397660) (xy -0.015764 4.406340) (xy 0.014041 4.412956) (xy 0.037001 4.417647) (xy 0.054275 4.420549)
     (xy 0.067023 4.421801) (xy 0.076405 4.421540) (xy 0.083578 4.419903) (xy 0.089703 4.417027) (xy 0.095938 4.413050) (xy 0.099713 4.410524) (xy 0.122409 4.398948) (xy 0.146984 4.393922)
     (xy 0.175756 4.395269) (xy 0.208694 4.402185) (xy 0.241762 4.409555) (xy 0.271993 4.412937) (xy 0.300970 4.411902) (xy 0.330274 4.406025) (xy 0.361486 4.394877) (xy 0.396188 4.378032)
     (xy 0.435961 4.355062) (xy 0.475322 4.330151) (xy 0.508278 4.309076) (xy 0.534259 4.293456) (xy 0.554866 4.282539) (xy 0.571697 4.275578) (xy 0.586353 4.271822) (xy 0.600434 4.270521)
     (xy 0.602625 4.270491) (xy 0.630263 4.275247) (xy 0.654410 4.289891) (xy 0.674522 4.313407) (xy 0.688999 4.335283) (xy 0.677581 4.389430) (xy 0.663786 4.480405) (xy 0.660408 4.572721)
     (xy 0.662096 4.611488) (xy 0.670306 4.680221) (xy 0.685145 4.741348) (xy 0.706517 4.794651) (xy 0.734326 4.839910) (xy 0.768473 4.876906) (xy 0.785283 4.890367) (xy 0.800087 4.900575)
     (xy 0.808911 4.904555) (xy 0.813972 4.902770) (xy 0.816996 4.897004) (xy 0.819849 4.880719) (xy 0.819652 4.855916) (xy 0.816506 4.824181) (xy 0.810514 4.787099) (xy 0.809641 4.782531)
     (xy 0.802710 4.742429) (xy 0.799357 4.710904) (xy 0.799615 4.686560) (xy 0.803518 4.668003) (xy 0.811097 4.653837) (xy 0.812741 4.651781) (xy 0.825089 4.639692) (xy 0.836695 4.636183)
     (xy 0.851350 4.640532) (xy 0.857080 4.643349) (xy 0.873492 4.657622) (xy 0.887262 4.682041) (xy 0.898343 4.716491) (xy 0.906691 4.760859) (xy 0.907671 4.768105) (xy 0.913719 4.811804)
     (xy 0.919283 4.845750) (xy 0.924317 4.869717) (xy 0.928778 4.883481) (xy 0.931142 4.886736) (xy 0.939452 4.887454) (xy 0.956636 4.885534) (xy 0.981393 4.881239) (xy 1.012419 4.874831)
     (xy 1.048411 4.866572) (xy 1.088066 4.856725) (xy 1.114007 4.849913) (xy 1.146629 4.841582) (xy 1.178878 4.834075) (xy 1.208065 4.827968) (xy 1.231502 4.823836) (xy 1.242314 4.822486)
     (xy 1.262405 4.820410) (xy 1.274356 4.817914) (xy 1.280597 4.814074) (xy 1.283560 4.807968) (xy 1.283898 4.806694) (xy 1.285393 4.791362) (xy 1.280947 4.776939) (xy 1.269502 4.761625)
     (xy 1.250001 4.743617) (xy 1.244006 4.738694) (xy 1.217585 4.714756) (xy 1.200641 4.692938) (xy 1.192547 4.672204) (xy 1.192367 4.653273) (xy 1.197077 4.635903) (xy 1.206003 4.620959)
     (xy 1.220612 4.607047) (xy 1.242373 4.592774) (xy 1.272750 4.576746) (xy 1.273102 4.576572) (xy 1.304978 4.559342) (xy 1.330594 4.542411) (xy 1.348869 4.526643) (xy 1.358724 4.512900)
     (xy 1.360159 4.506992) (xy 1.360341 4.499755) (xy 1.360718 4.483857) (xy 1.361245 4.461215) (xy 1.361877 4.433748) (xy 1.362344 4.413250) (xy 1.364856 4.359713) (xy 1.370075 4.297451)
     (xy 1.377844 4.227923) (xy 1.388008 4.152593) (xy 1.395257 4.104791) (xy 1.398422 4.084729) (xy 1.592180 3.987340) (xy 1.738920 3.912193) (xy 1.876019 3.839022) (xy 2.004133 3.767364)
     (xy 2.123920 3.696757) (xy 2.236035 3.626738) (xy 2.341137 3.556844) (xy 2.439881 3.486613) (xy 2.532925 3.415582) (xy 2.620925 3.343288) (xy 2.704539 3.269270) (xy 2.784424 3.193063)
     (xy 2.861235 3.114206) (xy 2.914640 3.055937) (xy 3.046457 2.900773) (xy 3.171502 2.737891) (xy 3.289490 2.567937) (xy 3.400133 2.391556) (xy 3.503145 2.209395) (xy 3.598240 2.022099)
     (xy 3.685131 1.830313) (xy 3.763532 1.634685) (xy 3.833155 1.435859) (xy 3.893715 1.234482) (xy 3.944925 1.031199) (xy 3.986499 0.826655) (xy 4.018150 0.621498) (xy 4.026926 0.548808)
     (xy 4.032998 0.492770) (xy 4.037921 0.442722) (xy 4.041854 0.396148) (xy 4.044956 0.350534) (xy 4.047383 0.303365) (xy 4.049296 0.252126) (xy 4.050853 0.194301) (xy 4.051668 0.156104)
     (xy 4.050766 -0.049062) (xy 4.039842 -0.250973) (xy 4.018856 -0.449888) (xy 3.987767 -0.646065) (xy 3.946537 -0.839762) (xy 3.895127 -1.031238) (xy 3.847044 -1.181814) (xy 3.835571 -1.214835)
     (xy 3.824243 -1.246176) (xy 3.812632 -1.276768) (xy 3.800309 -1.307542) (xy 3.786846 -1.339428) (xy 3.771814 -1.373356) (xy 3.754787 -1.410257) (xy 3.735334 -1.451061) (xy 3.713028 -1.496700)
     (xy 3.687441 -1.548103) (xy 3.658143 -1.606201) (xy 3.624708 -1.671924) (xy 3.592106 -1.735667) (xy 3.554921 -1.808955) (xy 3.522647 -1.874157) (xy 3.494815 -1.932297) (xy 3.470954 -1.984404)
     (xy 3.450595 -2.031504) (xy 3.433268 -2.074622) (xy 3.418502 -2.114786) (xy 3.418381 -2.115134) (xy 3.401741 -2.162786) (xy 3.461006 -2.220424) (xy 3.537724 -2.299548) (xy 3.604245 -2.378006)
     (xy 3.660874 -2.456444) (xy 3.707914 -2.535505) (xy 3.745670 -2.615834) (xy 3.774448 -2.698076) (xy 3.794551 -2.782875) (xy 3.806284 -2.870875) (xy 3.809956 -2.958663) (xy 3.810000 -3.014847)
     (xy 3.845954 -3.051449) (xy 3.887557 -3.100934) (xy 3.922389 -3.157032) (xy 3.949644 -3.217790) (xy 3.968518 -3.281254) (xy 3.978206 -3.345469) (xy 3.979357 -3.375345) (xy 3.979381 -3.410480)
     (xy 4.029216 -3.435836) (xy 4.083715 -3.466878) (xy 4.128277 -3.499889) (xy 4.163493 -3.535769) (xy 4.189954 -3.575419) (xy 4.208254 -3.619740) (xy 4.218983 -3.669631) (xy 4.222733 -3.725992)
     (xy 4.222750 -3.730320) (xy 4.222672 -3.751174) (xy 4.223124 -3.767472) (xy 4.225136 -3.780520) (xy 4.229737 -3.791626) (xy 4.237956 -3.802093) (xy 4.250822 -3.813231) (xy 4.269364 -3.826343)
     (xy 4.294611 -3.842737) (xy 4.327593 -3.863720) (xy 4.328110 -3.864049) (xy 4.356181 -3.882482) (xy 4.383616 -3.901449) (xy 4.408055 -3.919250) (xy 4.427137 -3.934187) (xy 4.434586 -3.940653)
     (xy 4.452339 -3.959130) (xy 4.468091 -3.979235) (xy 4.480651 -3.998962) (xy 4.488828 -4.016308) (xy 4.491433 -4.029269) (xy 4.489979 -4.033910) (xy 4.463857 -4.070909) (xy 4.444919 -4.103326)
     (xy 4.432276 -4.133426) (xy 4.425043 -4.163477) (xy 4.422333 -4.195742) (xy 4.422276 -4.206875) (xy 4.422814 -4.226041) (xy 4.424225 -4.244683) (xy 4.426824 -4.264381) (xy 4.430928 -4.286714)
     (xy 4.436853 -4.313262) (xy 4.444917 -4.345604) (xy 4.455434 -4.385319) (xy 4.465203 -4.421188) (xy 4.474178 -4.454674) (xy 4.482664 -4.487759) (xy 4.490027 -4.517862) (xy 4.495633 -4.542401)
     (xy 4.498395 -4.556125) (xy 4.501190 -4.578127) (xy 4.503218 -4.606698) (xy 4.504462 -4.639226) (xy 4.504906 -4.673095) (xy 4.504531 -4.705692) (xy 4.503322 -4.734403) (xy 4.501260 -4.756615)
     (xy 4.499761 -4.765093) (xy 4.495455 -4.778976) (xy 4.488703 -4.785996) (xy 4.475747 -4.789792) (xy 4.473878 -4.790151) (xy 4.460967 -4.791815) (xy 4.440078 -4.793645) (xy 4.413810 -4.795447)
     (xy 4.384761 -4.797028) (xy 4.376208 -4.797416) (xy 4.294234 -4.797009) (xy 4.210181 -4.788638) (xy 4.123218 -4.772124) (xy 4.032515 -4.747288) (xy 3.937243 -4.713950) (xy 3.877477 -4.689765)
     (xy 3.856802 -4.681034) (xy 3.841156 -4.673813) (xy 3.829233 -4.666530) (xy 3.819727 -4.657609) (xy 3.811331 -4.645478) (xy 3.802740 -4.628561) (xy 3.792648 -4.605286) (xy 3.779748 -4.574078)
     (xy 3.778035 -4.569931) (xy 3.763339 -4.540129) (xy 3.746038 -4.514254) (xy 3.727672 -4.494168) (xy 3.709780 -4.481734) (xy 3.703165 -4.479336) (xy 3.692463 -4.478372) (xy 3.677744 -4.480354)
     (xy 3.657460 -4.485660) (xy 3.630067 -4.494668) (xy 3.607725 -4.502685) (xy 3.590616 -4.508525) (xy 3.575556 -4.512115) (xy 3.560908 -4.513111) (xy 3.545036 -4.511167) (xy 3.526301 -4.505938)
     (xy 3.503065 -4.497078) (xy 3.473693 -4.484242) (xy 3.436545 -4.467085) (xy 3.434549 -4.466151) (xy 3.345968 -4.423939) (xy 3.266730 -4.384406) (xy 3.196090 -4.347029) (xy 3.133304 -4.311286)
     (xy 3.077627 -4.276655) (xy 3.028315 -4.242611) (xy 2.984623 -4.208633) (xy 2.945807 -4.174198) (xy 2.911122 -4.138783) (xy 2.879823 -4.101865) (xy 2.851167 -4.062922) (xy 2.842993 -4.050795)
     (xy 2.813371 -3.999968) (xy 2.786989 -3.942919) (xy 2.764683 -3.882280) (xy 2.747290 -3.820688) (xy 2.735645 -3.760775) (xy 2.730585 -3.705175) (xy 2.730440 -3.696230) (xy 2.730071 -3.678921)
     (xy 2.727993 -3.667446) (xy 2.722513 -3.661001) (xy 2.711938 -3.658786) (xy 2.694574 -3.659998) (xy 2.668728 -3.663837) (xy 2.663699 -3.664641) (xy 2.633203 -3.668765) (xy 2.599867 -3.672079)
     (xy 2.569026 -3.674093) (xy 2.556700 -3.674455) (xy 2.533513 -3.674612) (xy 2.518386 -3.673980) (xy 2.508796 -3.671939) (xy 2.502223 -3.667870) (xy 2.496143 -3.661153) (xy 2.494565 -3.659188)
     (xy 2.487826 -3.649151) (xy 2.477410 -3.631682) (xy 2.464454 -3.608775) (xy 2.450093 -3.582422) (xy 2.440823 -3.564922) (xy 2.416244 -3.520054) (xy 2.393889 -3.484196) (xy 2.372711 -3.456294)
     (xy 2.351664 -3.435292) (xy 2.329700 -3.420137) (xy 2.305772 -3.409773) (xy 2.280540 -3.403454) (xy 2.261727 -3.400951) (xy 2.242833 -3.400726) (xy 2.223116 -3.403167) (xy 2.201836 -3.408663)
     (xy 2.178252 -3.417602) (xy 2.151623 -3.430375) (xy 2.121208 -3.447368) (xy 2.086265 -3.468972) (xy 2.046055 -3.495575) (xy 1.999836 -3.527566) (xy 1.946867 -3.565333) (xy 1.886408 -3.609265)
     (xy 1.881584 -3.612795) (xy 1.849842 -3.635708) (xy 1.819705 -3.656633) (xy 1.790344 -3.675931) (xy 1.760928 -3.693962) (xy 1.730627 -3.711087) (xy 1.698612 -3.727668) (xy 1.664052 -3.744065)
     (xy 1.626117 -3.760640) (xy 1.583977 -3.777753) (xy 1.536802 -3.795765) (xy 1.483762 -3.815037) (xy 1.424028 -3.835930) (xy 1.356768 -3.858805) (xy 1.281154 -3.884022) (xy 1.196354 -3.911944)
     (xy 1.185333 -3.915555) (xy 1.086485 -3.947711) (xy 0.996402 -3.976520) (xy 0.913921 -4.002307) (xy 0.837883 -4.025397) (xy 0.767123 -4.046113) (xy 0.700481 -4.064779) (xy 0.636796 -4.081720)
     (xy 0.574904 -4.097260) (xy 0.513646 -4.111723) (xy 0.451858 -4.125434) (xy 0.388379 -4.138716) (xy 0.378354 -4.140749) (xy 0.267949 -4.161732) (xy 0.164680 -4.178483) (xy 0.066098 -4.191266)
     (xy -0.030243 -4.200342) (xy -0.126789 -4.205978) (xy -0.225986 -4.208435) (xy -0.251355 -4.208583) (xy -0.303938 -4.208503) (xy -0.349736 -4.207886) (xy -0.391172 -4.206562) (xy -0.430670 -4.204361)
     (xy -0.470654 -4.201115) (xy -0.513547 -4.196655) (xy -0.561773 -4.190810) (xy -0.617756 -4.183412) (xy -0.624292 -4.182523) (xy -0.808920 -4.152581) (xy -0.995600 -4.112983) (xy -1.183220 -4.064175)
     (xy -1.370670 -4.006601) (xy -1.556837 -3.940704) (xy -1.740610 -3.866931) (xy -1.920878 -3.785724) (xy -2.096529 -3.697529) (xy -2.266452 -3.602790) (xy -2.429535 -3.501950) (xy -2.574620 -3.402704)
     (xy -2.740014 -3.277427) (xy -2.897606 -3.145048) (xy -3.047328 -3.005689) (xy -3.189113 -2.859471) (xy -3.322891 -2.706516) (xy -3.448596 -2.546946) (xy -3.566159 -2.380884) (xy -3.675512 -2.208450)
     (xy -3.776589 -2.029767) (xy -3.869320 -1.844957) (xy -3.953638 -1.654141) (xy -4.029474 -1.457442) (xy -4.096762 -1.254981) (xy -4.155433 -1.046880) (xy -4.205420 -0.833260) (xy -4.246653 -0.614245)
     (xy -4.279066 -0.389956) (xy -4.286048 -0.330730) (xy -4.304335 -0.136191) (xy -4.314649 0.052100) (xy -4.316935 0.234913) (xy -5.080000 0.234913) (xy -5.080000 -5.080000) (xy 5.080000 -5.080000)
     (xy 5.080000 5.080000) )(layer F.SilkS) (width  0.010000)
  )
  (fp_poly (pts (xy -0.119084 0.831773) (xy -0.112218 0.835263) (xy -0.111125 0.839316) (xy -0.109983 0.847844) (xy -0.106758 0.865306) (xy -0.101749 0.890325) (xy -0.095259 0.921524) (xy -0.087589 0.957525)
     (xy -0.079040 0.996951) (xy -0.069912 1.038425) (xy -0.060507 1.080570) (xy -0.051126 1.122009) (xy -0.042070 1.161364) (xy -0.033640 1.197259) (xy -0.026138 1.228315) (xy -0.025645 1.230312)
     (xy -0.007774 1.300442) (xy 0.011263 1.371099) (xy 0.030963 1.440617) (xy 0.050822 1.507328) (xy 0.070337 1.569564) (xy 0.089006 1.625658) (xy 0.106325 1.673942) (xy 0.114857 1.695979)
     (xy 0.123391 1.715897) (xy 0.135978 1.743372) (xy 0.151744 1.776592) (xy 0.169818 1.813746) (xy 0.189326 1.853025) (xy 0.209395 1.892615) (xy 0.213037 1.899708) (xy 0.246338 1.964644)
     (xy 0.275111 2.021387) (xy 0.299825 2.071075) (xy 0.320950 2.114845) (xy 0.338955 2.153833) (xy 0.354308 2.189177) (xy 0.367479 2.222013) (xy 0.378936 2.253479) (xy 0.389149 2.284712)
     (xy 0.398586 2.316848) (xy 0.407717 2.351026) (xy 0.417010 2.388381) (xy 0.420388 2.402416) (xy 0.454605 2.567180) (xy 0.478659 2.732434) (xy 0.492551 2.897671) (xy 0.496283 3.062378)
     (xy 0.489856 3.226048) (xy 0.473272 3.388168) (xy 0.446530 3.548231) (xy 0.417380 3.676198) (xy 0.409091 3.708659) (xy 0.401565 3.738224) (xy 0.395250 3.763135) (xy 0.390590 3.781634)
     (xy 0.388030 3.791963) (xy 0.387823 3.792835) (xy 0.380484 3.802142) (xy 0.363546 3.810908) (xy 0.337987 3.818930) (xy 0.304785 3.826004) (xy 0.264920 3.831928) (xy 0.219369 3.836499)
     (xy 0.169112 3.839513) (xy 0.161395 3.839812) (xy 0.125031 3.841303) (xy 0.097306 3.843233) (xy 0.076277 3.846266) (xy 0.060004 3.851065) (xy 0.046545 3.858293) (xy 0.033957 3.868614)
     (xy 0.020298 3.882692) (xy 0.013297 3.890416) (xy -0.003554 3.910904) (xy -0.019290 3.934091) (xy -0.034837 3.961671) (xy -0.051116 3.995341) (xy -0.069053 4.036795) (xy -0.076950 4.056062)
     (xy -0.100056 4.111024) (xy -0.121217 4.156737) (xy -0.140981 4.194235) (xy -0.159899 4.224554) (xy -0.178520 4.248730) (xy -0.180317 4.250771) (xy -0.189668 4.261264) (xy -0.197673 4.269258)
     (xy -0.205812 4.274932) (xy -0.215566 4.278463) (xy -0.228415 4.280027) (xy -0.245839 4.279804) (xy -0.269320 4.277969) (xy -0.300337 4.274702) (xy -0.340372 4.270179) (xy -0.341313 4.270072)
     (xy -0.375484 4.266022) (xy -0.411005 4.261490) (xy -0.444305 4.256952) (xy -0.471811 4.252884) (xy -0.478896 4.251745) (xy -0.539656 4.238958) (xy -0.591867 4.222208) (xy -0.635156 4.201676)
     (xy -0.669153 4.177541) (xy -0.693484 4.149984) (xy -0.695749 4.146435) (xy -0.703343 4.133230) (xy -0.708061 4.121645) (xy -0.710580 4.108469) (xy -0.711575 4.090489) (xy -0.711730 4.070562)
     (xy -0.711516 4.046933) (xy -0.710543 4.031458) (xy -0.708312 4.021711) (xy -0.704325 4.015266) (xy -0.699446 4.010784) (xy -0.684979 4.001226) (xy -0.670159 3.996887) (xy -0.653019 3.997961)
     (xy -0.631594 4.004643) (xy -0.603917 4.017127) (xy -0.596159 4.020991) (xy -0.564578 4.035830) (xy -0.540108 4.044963) (xy -0.523463 4.048124) (xy -0.523290 4.048125) (xy -0.504213 4.048125)
     (xy -0.499492 3.948906) (xy -0.497125 3.889760) (xy -0.495789 3.834485) (xy -0.495474 3.784328) (xy -0.496171 3.740535) (xy -0.497869 3.704351) (xy -0.500559 3.677023) (xy -0.501735 3.669770)
     (xy -0.508378 3.646617) (xy -0.521071 3.615453) (xy -0.539597 3.576799) (xy -0.546199 3.563937) (xy -0.584730 3.489854) (xy -0.584145 3.413125) (xy -0.583796 3.390371) (xy -0.582988 3.369196)
     (xy -0.581524 3.347984) (xy -0.579207 3.325118) (xy -0.575841 3.298983) (xy -0.571229 3.267964) (xy -0.565175 3.230444) (xy -0.557483 3.184807) (xy -0.553730 3.162907) (xy -0.542162 3.093456)
     (xy -0.532736 3.031752) (xy -0.525114 2.975257) (xy -0.518955 2.921430) (xy -0.513919 2.867732) (xy -0.513383 2.861282) (xy -0.508450 2.801277) (xy -0.504274 2.750755) (xy -0.500754 2.708654)
     (xy -0.497791 2.673908) (xy -0.495286 2.645454) (xy -0.493140 2.622226) (xy -0.491254 2.603160) (xy -0.489528 2.587193) (xy -0.487862 2.573259) (xy -0.486158 2.560294) (xy -0.484315 2.547235)
     (xy -0.483649 2.542645) (xy -0.472283 2.476884) (xy -0.458473 2.420011) (xy -0.441704 2.370506) (xy -0.421461 2.326852) (xy -0.397229 2.287530) (xy -0.397021 2.287233) (xy -0.382235 2.267717)
     (xy -0.366631 2.249561) (xy -0.353240 2.236258) (xy -0.351523 2.234827) (xy -0.331609 2.218852) (xy -0.339107 2.161144) (xy -0.341833 2.133758) (xy -0.344024 2.099103) (xy -0.345527 2.060488)
     (xy -0.346187 2.021220) (xy -0.346193 2.008187) (xy -0.345624 1.968897) (xy -0.344130 1.931580) (xy -0.341496 1.895007) (xy -0.337510 1.857952) (xy -0.331957 1.819188) (xy -0.324624 1.777488)
     (xy -0.315299 1.731626) (xy -0.303767 1.680375) (xy -0.289816 1.622508) (xy -0.273232 1.556798) (xy -0.256453 1.492131) (xy -0.236604 1.415318) (xy -0.219663 1.347275) (xy -0.205397 1.286663)
     (xy -0.193572 1.232146) (xy -0.183955 1.182387) (xy -0.176314 1.136048) (xy -0.170414 1.091793) (xy -0.166023 1.048283) (xy -0.162907 1.004183) (xy -0.160834 0.958154) (xy -0.160291 0.940593)
     (xy -0.157251 0.830791) (xy -0.134188 0.830791) (xy -0.119084 0.831773) )(layer F.SilkS) (width  0.010000)
  )
  (fp_poly (pts (xy 0.788813 2.239285) (xy 0.796931 2.243135) (xy 0.805961 2.251609) (xy 0.817949 2.266386) (xy 0.825016 2.275759) (xy 0.878873 2.355552) (xy 0.927995 2.444221) (xy 0.972408 2.541850)
     (xy 1.012137 2.648523) (xy 1.047206 2.764325) (xy 1.077642 2.889340) (xy 1.103468 3.023651) (xy 1.124711 3.167344) (xy 1.141394 3.320501) (xy 1.143961 3.349625) (xy 1.146195 3.382114)
     (xy 1.148001 3.421211) (xy 1.149395 3.465875) (xy 1.150393 3.515069) (xy 1.151009 3.567753) (xy 1.151260 3.622888) (xy 1.151161 3.679436) (xy 1.150728 3.736358) (xy 1.149976 3.792615)
     (xy 1.148920 3.847168) (xy 1.147577 3.898979) (xy 1.145962 3.947008) (xy 1.144090 3.990218) (xy 1.141976 4.027568) (xy 1.139638 4.058020) (xy 1.137089 4.080536) (xy 1.134346 4.094077)
     (xy 1.132770 4.097311) (xy 1.124748 4.102243) (xy 1.108530 4.109657) (xy 1.086014 4.118849) (xy 1.059096 4.129116) (xy 1.029673 4.139755) (xy 0.999642 4.150062) (xy 0.970901 4.159335)
     (xy 0.945346 4.166869) (xy 0.944523 4.167096) (xy 0.875964 4.184369) (xy 0.810643 4.197425) (xy 0.745219 4.206732) (xy 0.676353 4.212760) (xy 0.600704 4.215979) (xy 0.595783 4.216095)
     (xy 0.474546 4.218839) (xy 0.487042 4.201289) (xy 0.495914 4.190067) (xy 0.509944 4.173701) (xy 0.526961 4.154682) (xy 0.539542 4.141067) (xy 0.568474 4.109527) (xy 0.592591 4.081195)
     (xy 0.612489 4.054584) (xy 0.628760 4.028205) (xy 0.641996 4.000571) (xy 0.652793 3.970193) (xy 0.661742 3.935585) (xy 0.669438 3.895257) (xy 0.676473 3.847723) (xy 0.683441 3.791493)
     (xy 0.685276 3.775604) (xy 0.690682 3.733024) (xy 0.697388 3.689153) (xy 0.705624 3.642985) (xy 0.715623 3.593513) (xy 0.727614 3.539730) (xy 0.741828 3.480629) (xy 0.758498 3.415204)
     (xy 0.777854 3.342447) (xy 0.800126 3.261353) (xy 0.817654 3.198812) (xy 0.837099 3.129852) (xy 0.853856 3.070186) (xy 0.868126 3.018925) (xy 0.880108 2.975182) (xy 0.889999 2.938066)
     (xy 0.898001 2.906691) (xy 0.904310 2.880167) (xy 0.909127 2.857607) (xy 0.912650 2.838120) (xy 0.915079 2.820820) (xy 0.916613 2.804818) (xy 0.917450 2.789225) (xy 0.917789 2.773152)
     (xy 0.917830 2.755712) (xy 0.917819 2.751666) (xy 0.917494 2.722502) (xy 0.916395 2.700557) (xy 0.914021 2.682469) (xy 0.909869 2.664877) (xy 0.903439 2.644421) (xy 0.900556 2.635958)
     (xy 0.892560 2.615243) (xy 0.880678 2.587717) (xy 0.866056 2.555880) (xy 0.849841 2.522231) (xy 0.833787 2.490437) (xy 0.811417 2.446351) (xy 0.794011 2.409666) (xy 0.781014 2.378757)
     (xy 0.771870 2.351995) (xy 0.766023 2.327753) (xy 0.762918 2.304402) (xy 0.762000 2.280317) (xy 0.762000 2.238375) (xy 0.779564 2.238375) (xy 0.788813 2.239285) )(layer F.SilkS) (width  0.010000)
  )
  (fp_poly (pts (xy -0.822172 4.077746) (xy -0.805446 4.084651) (xy -0.778245 4.104072) (xy -0.758733 4.129730) (xy -0.747959 4.159950) (xy -0.746125 4.179554) (xy -0.746869 4.193051) (xy -0.751094 4.199584)
     (xy -0.761793 4.202762) (xy -0.765969 4.203478) (xy -0.806861 4.206443) (xy -0.845386 4.201990) (xy -0.865934 4.195861) (xy -0.884423 4.187051) (xy -0.894668 4.176433) (xy -0.898912 4.160772)
     (xy -0.899512 4.147450) (xy -0.896389 4.126603) (xy -0.888083 4.105981) (xy -0.876485 4.089423) (xy -0.867441 4.082317) (xy -0.845148 4.075292) (xy -0.822172 4.077746) )(layer F.SilkS) (width  0.010000)
  )
  (fp_poly (pts (xy -1.301111 3.944717) (xy -1.286559 3.950879) (xy -1.259046 3.969502) (xy -1.240690 3.993017) (xy -1.231834 4.020697) (xy -1.232824 4.051814) (xy -1.234736 4.060379) (xy -1.243386 4.073963)
     (xy -1.259859 4.083723) (xy -1.282003 4.089371) (xy -1.307665 4.090620) (xy -1.334694 4.087183) (xy -1.360939 4.078773) (xy -1.363587 4.077578) (xy -1.390780 4.059622) (xy -1.410376 4.034474)
     (xy -1.422622 4.001811) (xy -1.423155 3.999487) (xy -1.426378 3.979511) (xy -1.424311 3.966227) (xy -1.415549 3.956482) (xy -1.400149 3.947826) (xy -1.369081 3.938308) (xy -1.335010 3.937300)
     (xy -1.301111 3.944717) )(layer F.SilkS) (width  0.010000)
  )
  (fp_poly (pts (xy 3.269726 -1.963489) (xy 3.279503 -1.956272) (xy 3.294804 -1.942607) (xy 3.314168 -1.923996) (xy 3.336131 -1.901939) (xy 3.359232 -1.877938) (xy 3.382009 -1.853495) (xy 3.402998 -1.830110)
     (xy 3.420737 -1.809284) (xy 3.424648 -1.804459) (xy 3.492130 -1.712356) (xy 3.554682 -1.610945) (xy 3.612287 -1.500292) (xy 3.664927 -1.380463) (xy 3.712585 -1.251525) (xy 3.755243 -1.113543)
     (xy 3.792884 -0.966584) (xy 3.825490 -0.810715) (xy 3.853043 -0.646000) (xy 3.875526 -0.472507) (xy 3.892922 -0.290302) (xy 3.905213 -0.099451) (xy 3.910465 0.029478) (xy 3.912730 0.241547)
     (xy 3.906000 0.450994) (xy 3.890363 0.657375) (xy 3.865904 0.860247) (xy 3.832711 1.059168) (xy 3.790869 1.253694) (xy 3.740466 1.443382) (xy 3.681587 1.627790) (xy 3.614318 1.806473)
     (xy 3.538747 1.978990) (xy 3.524214 2.009469) (xy 3.472262 2.112918) (xy 3.417978 2.212621) (xy 3.360652 2.309535) (xy 3.299578 2.404623) (xy 3.234047 2.498841) (xy 3.163352 2.593152)
     (xy 3.086785 2.688513) (xy 3.003640 2.785885) (xy 2.913207 2.886228) (xy 2.814779 2.990500) (xy 2.756958 3.049895) (xy 2.654897 3.151333) (xy 2.556403 3.244281) (xy 2.460318 3.329721)
     (xy 2.365486 3.408633) (xy 2.270748 3.482000) (xy 2.174949 3.550801) (xy 2.130769 3.580811) (xy 2.015870 3.653301) (xy 1.898016 3.719529) (xy 1.778703 3.778795) (xy 1.659426 3.830396)
     (xy 1.541680 3.873631) (xy 1.443302 3.903446) (xy 1.437914 3.903513) (xy 1.435117 3.898455) (xy 1.434117 3.886048) (xy 1.434041 3.877560) (xy 1.434844 3.847479) (xy 1.437139 3.808586)
     (xy 1.440755 3.762524) (xy 1.445520 3.710932) (xy 1.451263 3.655451) (xy 1.457814 3.597723) (xy 1.465000 3.539387) (xy 1.472651 3.482085) (xy 1.480596 3.427458) (xy 1.481887 3.419046)
     (xy 1.500050 3.308435) (xy 1.518705 3.208219) (xy 1.537894 3.118219) (xy 1.557660 3.038256) (xy 1.578044 2.968151) (xy 1.599088 2.907726) (xy 1.605357 2.891895) (xy 1.637770 2.812520)
     (xy 1.637770 2.756958) (xy 1.637742 2.738354) (xy 1.637270 2.722431) (xy 1.635769 2.708180) (xy 1.632658 2.694590) (xy 1.627352 2.680651) (xy 1.619268 2.665353) (xy 1.607824 2.647685)
     (xy 1.592435 2.626637) (xy 1.572518 2.601198) (xy 1.547491 2.570359) (xy 1.516770 2.533109) (xy 1.489604 2.500312) (xy 1.471087 2.476539) (xy 1.452863 2.450717) (xy 1.437487 2.426581)
     (xy 1.430192 2.413489) (xy 1.419823 2.391949) (xy 1.413789 2.375153) (xy 1.410967 2.358779) (xy 1.410231 2.338504) (xy 1.410229 2.336760) (xy 1.412855 2.305132) (xy 1.421490 2.276860)
     (xy 1.437264 2.249507) (xy 1.461310 2.220639) (xy 1.466898 2.214792) (xy 1.480955 2.200008) (xy 1.491614 2.188183) (xy 1.497134 2.181269) (xy 1.497532 2.180396) (xy 1.493443 2.176194)
     (xy 1.482973 2.168539) (xy 1.474262 2.162825) (xy 1.442161 2.137527) (xy 1.414795 2.106116) (xy 1.393710 2.070971) (xy 1.380449 2.034471) (xy 1.376890 2.012905) (xy 1.378904 1.976169)
     (xy 1.390184 1.939659) (xy 1.409595 1.905553) (xy 1.436003 1.876033) (xy 1.456242 1.860429) (xy 1.469474 1.850783) (xy 1.478141 1.841149) (xy 1.482085 1.830087) (xy 1.481147 1.816155)
     (xy 1.475169 1.797914) (xy 1.463992 1.773922) (xy 1.447458 1.742739) (xy 1.442256 1.733263) (xy 1.429279 1.708595) (xy 1.421247 1.690028) (xy 1.417190 1.674888) (xy 1.416131 1.661381)
     (xy 1.419845 1.636434) (xy 1.431454 1.611589) (xy 1.451659 1.585758) (xy 1.481161 1.557851) (xy 1.484564 1.554976) (xy 1.501318 1.540632) (xy 1.515744 1.527199) (xy 1.528350 1.513617)
     (xy 1.539645 1.498825) (xy 1.550138 1.481763) (xy 1.560337 1.461371) (xy 1.570753 1.436588) (xy 1.581893 1.406355) (xy 1.594266 1.369610) (xy 1.608382 1.325293) (xy 1.624749 1.272344)
     (xy 1.632716 1.246296) (xy 1.641734 1.218421) (xy 1.651472 1.191020) (xy 1.660684 1.167472) (xy 1.667334 1.152673) (xy 1.680843 1.130006) (xy 1.697581 1.107813) (xy 1.715057 1.089046)
     (xy 1.730782 1.076659) (xy 1.732014 1.075964) (xy 1.736527 1.072742) (xy 1.738090 1.067928) (xy 1.736401 1.059250) (xy 1.731161 1.044438) (xy 1.726118 1.031487) (xy 1.717503 1.008092)
     (xy 1.709632 0.984129) (xy 1.704173 0.964685) (xy 1.704071 0.964256) (xy 1.701198 0.950782) (xy 1.700380 0.940011) (xy 1.702144 0.928958) (xy 1.707021 0.914640) (xy 1.715537 0.894071)
     (xy 1.717200 0.890173) (xy 1.760918 0.800826) (xy 1.813323 0.717422) (xy 1.862069 0.654197) (xy 1.885516 0.628509) (xy 1.914611 0.599975) (xy 1.946423 0.571221) (xy 1.978022 0.544875)
     (xy 2.006480 0.523562) (xy 2.011739 0.520001) (xy 2.032957 0.505959) (xy 1.969738 0.446385) (xy 1.926524 0.403988) (xy 1.891506 0.365631) (xy 1.863773 0.329957) (xy 1.842418 0.295610)
     (xy 1.826530 0.261234) (xy 1.815201 0.225472) (xy 1.811801 0.210757) (xy 1.806667 0.169744) (xy 1.808797 0.132171) (xy 1.818036 0.100136) (xy 1.820347 0.095305) (xy 1.827176 0.083815)
     (xy 1.838743 0.066248) (xy 1.853433 0.044989) (xy 1.869632 0.022425) (xy 1.869702 0.022330) (xy 1.885971 -0.000790) (xy 1.900641 -0.023281) (xy 1.912080 -0.042537) (xy 1.918575 -0.055735)
     (xy 1.924691 -0.083840) (xy 1.924419 -0.116426) (xy 1.918040 -0.149754) (xy 1.909882 -0.171980) (xy 1.901678 -0.195232) (xy 1.898045 -0.221137) (xy 1.897638 -0.235480) (xy 1.898667 -0.254400)
     (xy 1.902190 -0.274099) (xy 1.908664 -0.295420) (xy 1.918546 -0.319208) (xy 1.932295 -0.346305) (xy 1.950368 -0.377557) (xy 1.973221 -0.413805) (xy 2.001314 -0.455894) (xy 2.035102 -0.504669)
     (xy 2.071222 -0.555625) (xy 2.107315 -0.606504) (xy 2.137538 -0.649952) (xy 2.162492 -0.686913) (xy 2.182778 -0.718330) (xy 2.198996 -0.745148) (xy 2.211746 -0.768310) (xy 2.221631 -0.788761)
     (xy 2.225771 -0.798475) (xy 2.230473 -0.809568) (xy 2.235283 -0.818237) (xy 2.241795 -0.825800) (xy 2.251605 -0.833579) (xy 2.266309 -0.842893) (xy 2.287502 -0.855062) (xy 2.308026 -0.866528)
     (xy 2.395934 -0.918100) (xy 2.477574 -0.971253) (xy 2.551930 -1.025243) (xy 2.617981 -1.079325) (xy 2.674711 -1.132754) (xy 2.681501 -1.139773) (xy 2.716500 -1.178157) (xy 2.744595 -1.213307)
     (xy 2.767688 -1.247867) (xy 2.787678 -1.284477) (xy 2.792084 -1.293566) (xy 2.812778 -1.347697) (xy 2.822940 -1.400813) (xy 2.822565 -1.452976) (xy 2.811646 -1.504247) (xy 2.790179 -1.554688)
     (xy 2.764475 -1.595790) (xy 2.752248 -1.613749) (xy 2.743291 -1.628697) (xy 2.738829 -1.638489) (xy 2.738712 -1.640861) (xy 2.745152 -1.646460) (xy 2.756812 -1.653558) (xy 2.758239 -1.654309)
     (xy 2.769569 -1.658712) (xy 2.783455 -1.660637) (xy 2.802976 -1.660346) (xy 2.817435 -1.659319) (xy 2.844489 -1.657114) (xy 2.873757 -1.654764) (xy 2.897976 -1.652850) (xy 2.935808 -1.649898)
     (xy 2.952733 -1.685362) (xy 2.968297 -1.712577) (xy 2.988973 -1.738834) (xy 3.015929 -1.765263) (xy 3.050332 -1.792994) (xy 3.093351 -1.823157) (xy 3.098952 -1.826865) (xy 3.137904 -1.852913)
     (xy 3.168971 -1.874688) (xy 3.193430 -1.893219) (xy 3.212554 -1.909536) (xy 3.227619 -1.924669) (xy 3.239900 -1.939648) (xy 3.241825 -1.942286) (xy 3.253116 -1.956897) (xy 3.261033 -1.963799)
     (xy 3.267494 -1.964448) (xy 3.269726 -1.963489) )(layer F.SilkS) (width  0.010000)
  )
  (fp_poly (pts (xy 0.021816 -4.067434) (xy 0.236840 -4.057053) (xy 0.317500 -4.050656) (xy 0.357909 -4.046845) (xy 0.395968 -4.042595) (xy 0.432911 -4.037645) (xy 0.469973 -4.031735) (xy 0.508387 -4.024603)
     (xy 0.549387 -4.015989) (xy 0.594208 -4.005633) (xy 0.644083 -3.993272) (xy 0.700246 -3.978647) (xy 0.763932 -3.961497) (xy 0.836374 -3.941561) (xy 0.844949 -3.939181) (xy 0.981999 -3.899650)
     (xy 1.109562 -3.859706) (xy 1.228733 -3.818894) (xy 1.340607 -3.776758) (xy 1.446282 -3.732843) (xy 1.546851 -3.686696) (xy 1.643412 -3.637860) (xy 1.737059 -3.585882) (xy 1.827021 -3.531482)
     (xy 1.868514 -3.504658) (xy 1.910535 -3.476173) (xy 1.952152 -3.446767) (xy 1.992437 -3.417183) (xy 2.030458 -3.388160) (xy 2.065286 -3.360443) (xy 2.095991 -3.334770) (xy 2.121642 -3.311885)
     (xy 2.141310 -3.292529) (xy 2.154064 -3.277443) (xy 2.158973 -3.267369) (xy 2.158999 -3.266822) (xy 2.157436 -3.253383) (xy 2.153175 -3.232358) (xy 2.146863 -3.206205) (xy 2.139144 -3.177382)
     (xy 2.130665 -3.148344) (xy 2.122071 -3.121549) (xy 2.117244 -3.107886) (xy 2.110403 -3.089737) (xy 2.100568 -3.064127) (xy 2.088660 -3.033428) (xy 2.075600 -3.000013) (xy 2.062306 -2.966254)
     (xy 2.062198 -2.965980) (xy 2.041035 -2.911469) (xy 2.023787 -2.864568) (xy 2.009860 -2.823312) (xy 1.998663 -2.785735) (xy 1.989604 -2.749871) (xy 1.982089 -2.713754) (xy 1.976501 -2.681553)
     (xy 1.973634 -2.668632) (xy 1.968273 -2.663043) (xy 1.956792 -2.661728) (xy 1.952964 -2.661709) (xy 1.938883 -2.663053) (xy 1.918090 -2.666655) (xy 1.894051 -2.671873) (xy 1.881700 -2.674938)
     (xy 1.844964 -2.683390) (xy 1.815944 -2.687452) (xy 1.792810 -2.687300) (xy 1.779322 -2.684832) (xy 1.773568 -2.682575) (xy 1.770042 -2.678098) (xy 1.768204 -2.669177) (xy 1.767511 -2.653587)
     (xy 1.767417 -2.635956) (xy 1.769180 -2.598659) (xy 1.774418 -2.551910) (xy 1.783055 -2.496229) (xy 1.795015 -2.432134) (xy 1.802211 -2.397125) (xy 1.814854 -2.316472) (xy 1.818793 -2.259542)
     (xy 1.819740 -2.230195) (xy 1.819871 -2.208542) (xy 1.818865 -2.191706) (xy 1.816402 -2.176810) (xy 1.812162 -2.160975) (xy 1.805825 -2.141324) (xy 1.805544 -2.140480) (xy 1.795902 -2.112924)
     (xy 1.784122 -2.081267) (xy 1.772304 -2.051107) (xy 1.768815 -2.042584) (xy 1.759110 -2.018197) (xy 1.750370 -1.994437) (xy 1.743885 -1.974892) (xy 1.741806 -1.967480) (xy 1.737695 -1.941056)
     (xy 1.736006 -1.906132) (xy 1.736700 -1.864504) (xy 1.739739 -1.817965) (xy 1.745086 -1.768311) (xy 1.746250 -1.759480) (xy 1.753466 -1.695988) (xy 1.756592 -1.641462) (xy 1.755561 -1.595079)
     (xy 1.750312 -1.556017) (xy 1.740781 -1.523455) (xy 1.726904 -1.496571) (xy 1.725819 -1.494956) (xy 1.716321 -1.483441) (xy 1.702669 -1.469699) (xy 1.687274 -1.455822) (xy 1.672549 -1.443906)
     (xy 1.660905 -1.436044) (xy 1.655705 -1.434069) (xy 1.651769 -1.438854) (xy 1.644444 -1.452678) (xy 1.634111 -1.474692) (xy 1.621152 -1.504044) (xy 1.605946 -1.539886) (xy 1.588877 -1.581368)
     (xy 1.582122 -1.598084) (xy 1.561261 -1.648743) (xy 1.540806 -1.696139) (xy 1.521445 -1.738779) (xy 1.503866 -1.775168) (xy 1.488757 -1.803809) (xy 1.482361 -1.814731) (xy 1.467007 -1.839683)
     (xy 1.464302 -2.024477) (xy 1.463272 -2.083411) (xy 1.462025 -2.132820) (xy 1.460511 -2.173762) (xy 1.458678 -2.207294) (xy 1.456476 -2.234475) (xy 1.453856 -2.256362) (xy 1.452958 -2.262188)
     (xy 1.443257 -2.313438) (xy 1.431480 -2.362253) (xy 1.418427 -2.405544) (xy 1.409824 -2.428798) (xy 1.398031 -2.457825) (xy 1.322109 -2.491084) (xy 1.240092 -2.528244) (xy 1.167619 -2.563803)
     (xy 1.103869 -2.598292) (xy 1.048021 -2.632244) (xy 0.999254 -2.666192) (xy 0.956746 -2.700668) (xy 0.919675 -2.736206) (xy 0.887604 -2.772859) (xy 0.846004 -2.832863) (xy 0.812306 -2.898392)
     (xy 0.787381 -2.967425) (xy 0.772101 -3.037943) (xy 0.771579 -3.041671) (xy 0.764951 -3.090334) (xy 0.722359 -3.090334) (xy 0.694769 -3.089130) (xy 0.666862 -3.085167) (xy 0.636532 -3.077914)
     (xy 0.601673 -3.066843) (xy 0.560176 -3.051425) (xy 0.547458 -3.046406) (xy 0.521201 -3.036334) (xy 0.495421 -3.027117) (xy 0.473438 -3.019906) (xy 0.460841 -3.016363) (xy 0.419604 -3.011737)
     (xy 0.378419 -3.016966) (xy 0.339559 -3.031555) (xy 0.313225 -3.048407) (xy 0.307751 -3.052260) (xy 0.302422 -3.053735) (xy 0.295399 -3.052127) (xy 0.284847 -3.046734) (xy 0.268930 -3.036852)
     (xy 0.248717 -3.023678) (xy 0.192824 -2.989893) (xy 0.142133 -2.965231) (xy 0.096517 -2.949676) (xy 0.055847 -2.943208) (xy 0.019993 -2.945811) (xy -0.011172 -2.957466) (xy -0.037778 -2.978154)
     (xy -0.042022 -2.982756) (xy -0.060479 -3.009935) (xy -0.075401 -3.044396) (xy -0.085593 -3.083098) (xy -0.088246 -3.100470) (xy -0.091528 -3.128181) (xy -0.176733 -3.043500) (xy -0.211644 -3.009095)
     (xy -0.243781 -2.978144) (xy -0.274662 -2.949320) (xy -0.305801 -2.921291) (xy -0.338716 -2.892727) (xy -0.374922 -2.862300) (xy -0.415935 -2.828679) (xy -0.463271 -2.790533) (xy -0.484188 -2.773813)
     (xy -0.539398 -2.729743) (xy -0.587118 -2.691618) (xy -0.628141 -2.658790) (xy -0.663259 -2.630616) (xy -0.693265 -2.606450) (xy -0.718952 -2.585646) (xy -0.741111 -2.567560) (xy -0.760535 -2.551547)
     (xy -0.778017 -2.536961) (xy -0.794349 -2.523157) (xy -0.810325 -2.509490) (xy -0.826735 -2.495315) (xy -0.833438 -2.489497) (xy -0.933406 -2.397826) (xy -1.022992 -2.305443) (xy -1.102390 -2.212069)
     (xy -1.171794 -2.117423) (xy -1.231396 -2.021227) (xy -1.281389 -1.923200) (xy -1.321967 -1.823062) (xy -1.346311 -1.746502) (xy -1.363537 -1.685396) (xy -1.421270 -1.646964) (xy -1.445072 -1.630570)
     (xy -1.467447 -1.614180) (xy -1.485912 -1.599674) (xy -1.497986 -1.588930) (xy -1.498156 -1.588755) (xy -1.517310 -1.568980) (xy -1.536899 -1.418167) (xy -1.548491 -1.332034) (xy -1.559700 -1.255434)
     (xy -1.570737 -1.187331) (xy -1.581812 -1.126693) (xy -1.593132 -1.072483) (xy -1.604909 -1.023669) (xy -1.617350 -0.979215) (xy -1.630666 -0.938088) (xy -1.638419 -0.916564) (xy -1.653135 -0.878753)
     (xy -1.666970 -0.847379) (xy -1.681811 -0.818663) (xy -1.699543 -0.788825) (xy -1.711622 -0.769938) (xy -1.724932 -0.751017) (xy -1.740904 -0.730599) (xy -1.757965 -0.710426) (xy -1.774541 -0.692245)
     (xy -1.789060 -0.677799) (xy -1.799950 -0.668833) (xy -1.804654 -0.666750) (xy -1.808781 -0.671446) (xy -1.814886 -0.683955) (xy -1.822046 -0.701916) (xy -1.829336 -0.722963) (xy -1.835835 -0.744735)
     (xy -1.837336 -0.750440) (xy -1.839883 -0.766842) (xy -1.841425 -0.792350) (xy -1.841976 -0.827409) (xy -1.841550 -0.872465) (xy -1.841327 -0.883709) (xy -1.839847 -0.959926) (xy -1.838971 -1.027219)
     (xy -1.838838 -1.087238) (xy -1.839585 -1.141632) (xy -1.841351 -1.192051) (xy -1.844274 -1.240144) (xy -1.848492 -1.287561) (xy -1.854144 -1.335952) (xy -1.861369 -1.386965) (xy -1.870303 -1.442250)
     (xy -1.881087 -1.503457) (xy -1.893858 -1.572235) (xy -1.903158 -1.621096) (xy -1.922263 -1.720838) (xy -1.938344 -1.717621) (xy -1.960487 -1.710044) (xy -1.987023 -1.696029) (xy -2.015466 -1.677179)
     (xy -2.043327 -1.655097) (xy -2.061525 -1.638204) (xy -2.080534 -1.618206) (xy -2.097598 -1.597801) (xy -2.113303 -1.575821) (xy -2.128233 -1.551100) (xy -2.142972 -1.522470) (xy -2.158107 -1.488766)
     (xy -2.174222 -1.448819) (xy -2.191900 -1.401465) (xy -2.211729 -1.345535) (xy -2.219560 -1.322917) (xy -2.242499 -1.258685) (xy -2.264009 -1.203747) (xy -2.284712 -1.157017) (xy -2.305228 -1.117406)
     (xy -2.326178 -1.083826) (xy -2.348184 -1.055189) (xy -2.371866 -1.030407) (xy -2.397846 -1.008392) (xy -2.400055 -1.006709) (xy -2.425809 -0.988576) (xy -2.451738 -0.973480) (xy -2.479184 -0.961097)
     (xy -2.509490 -0.951103) (xy -2.544000 -0.943173) (xy -2.584056 -0.936984) (xy -2.631001 -0.932211) (xy -2.686178 -0.928531) (xy -2.733146 -0.926318) (xy -2.792712 -0.923339) (xy -2.843220 -0.919514)
     (xy -2.886179 -0.914543) (xy -2.923100 -0.908126) (xy -2.955495 -0.899964) (xy -2.984873 -0.889756) (xy -3.012745 -0.877204) (xy -3.031802 -0.867068) (xy -3.047544 -0.857888) (xy -3.062511 -0.848248)
     (xy -3.078299 -0.836927) (xy -3.096507 -0.822704) (xy -3.118731 -0.804357) (xy -3.146571 -0.780666) (xy -3.160115 -0.769006) (xy -3.196398 -0.738416) (xy -3.226028 -0.715073) (xy -3.249650 -0.698553)
     (xy -3.267902 -0.688433) (xy -3.281427 -0.684290) (xy -3.287983 -0.684601) (xy -3.304151 -0.691843) (xy -3.324254 -0.705503) (xy -3.345841 -0.723559) (xy -3.366462 -0.743987) (xy -3.381410 -0.761720)
     (xy -3.390666 -0.775575) (xy -3.403530 -0.797134) (xy -3.418989 -0.824582) (xy -3.436033 -0.856100) (xy -3.453650 -0.889871) (xy -3.462877 -0.908069) (xy -3.481542 -0.945043) (xy -3.496537 -0.974002)
     (xy -3.508797 -0.996461) (xy -3.519258 -1.013933) (xy -3.528854 -1.027933) (xy -3.538522 -1.039974) (xy -3.549197 -1.051571) (xy -3.555446 -1.057919) (xy -3.572727 -1.074425) (xy -3.589095 -1.088686)
     (xy -3.601917 -1.098459) (xy -3.605616 -1.100687) (xy -3.614858 -1.104779) (xy -3.621671 -1.104423) (xy -3.629275 -1.098342) (xy -3.638993 -1.087455) (xy -3.677307 -1.035745) (xy -3.708150 -0.977657)
     (xy -3.731978 -0.912291) (xy -3.736676 -0.895527) (xy -3.743333 -0.861805) (xy -3.747977 -0.819979) (xy -3.750644 -0.772329) (xy -3.751373 -0.721136) (xy -3.750200 -0.668677) (xy -3.747161 -0.617234)
     (xy -3.742294 -0.569084) (xy -3.735635 -0.526509) (xy -3.730314 -0.502709) (xy -3.723724 -0.482723) (xy -3.712356 -0.454581) (xy -3.696669 -0.419322) (xy -3.677121 -0.377986) (xy -3.659049 -0.341313)
     (xy -3.637167 -0.297226) (xy -3.619769 -0.260859) (xy -3.606382 -0.230582) (xy -3.596535 -0.204764) (xy -3.589754 -0.181773) (xy -3.585568 -0.159978) (xy -3.583505 -0.137749) (xy -3.583093 -0.113454)
     (xy -3.583860 -0.085463) (xy -3.583999 -0.082021) (xy -3.585870 -0.051277) (xy -3.589129 -0.021912) (xy -3.594197 0.007903) (xy -3.601497 0.039999) (xy -3.611450 0.076206) (xy -3.624477 0.118353)
     (xy -3.641001 0.168270) (xy -3.643156 0.174625) (xy -3.662038 0.232986) (xy -3.676095 0.283180) (xy -3.685488 0.326376) (xy -3.690379 0.363741) (xy -3.690929 0.396443) (xy -3.687300 0.425650)
     (xy -3.681059 0.448577) (xy -3.667024 0.478191) (xy -3.646456 0.507514) (xy -3.622399 0.532578) (xy -3.608206 0.543494) (xy -3.596254 0.550705) (xy -3.585225 0.554851) (xy -3.571685 0.556624)
     (xy -3.552201 0.556710) (xy -3.543516 0.556475) (xy -3.499823 0.558158) (xy -3.458358 0.566576) (xy -3.415582 0.582553) (xy -3.399896 0.589960) (xy -3.380793 0.599967) (xy -3.362068 0.611156)
     (xy -3.342399 0.624530) (xy -3.320461 0.641092) (xy -3.294930 0.661847) (xy -3.264481 0.687796) (xy -3.227791 0.719945) (xy -3.224415 0.722931) (xy -3.185976 0.756508) (xy -3.153617 0.783680)
     (xy -3.125909 0.805498) (xy -3.101421 0.823014) (xy -3.078724 0.837280) (xy -3.056388 0.849347) (xy -3.045355 0.854678) (xy -3.005571 0.870718) (xy -2.967744 0.879945) (xy -2.927359 0.883245)
     (xy -2.902365 0.882855) (xy -2.877023 0.880944) (xy -2.855000 0.876902) (xy -2.834024 0.869769) (xy -2.811822 0.858582) (xy -2.786122 0.842381) (xy -2.755216 0.820616) (xy -2.728835 0.801949)
     (xy -2.705748 0.787102) (xy -2.684045 0.775436) (xy -2.661814 0.766314) (xy -2.637145 0.759096) (xy -2.608128 0.753144) (xy -2.572850 0.747821) (xy -2.529403 0.742486) (xy -2.517205 0.741095)
     (xy -2.462530 0.733865) (xy -2.417041 0.725169) (xy -2.379364 0.714246) (xy -2.348126 0.700336) (xy -2.321953 0.682679) (xy -2.299471 0.660514) (xy -2.279308 0.633082) (xy -2.260088 0.599622)
     (xy -2.259479 0.598454) (xy -2.237922 0.563221) (xy -2.214469 0.536218) (xy -2.190035 0.518419) (xy -2.179815 0.513961) (xy -2.169921 0.511602) (xy -2.162039 0.513976) (xy -2.152634 0.522631)
     (xy -2.147888 0.527931) (xy -2.125331 0.561479) (xy -2.110679 0.601093) (xy -2.104048 0.645675) (xy -2.105554 0.694123) (xy -2.115315 0.745338) (xy -2.122310 0.768629) (xy -2.140822 0.813256)
     (xy -2.165071 0.855076) (xy -2.193800 0.892811) (xy -2.225751 0.925180) (xy -2.259669 0.950904) (xy -2.294295 0.968703) (xy -2.327101 0.977152) (xy -2.352621 0.980175) (xy -2.352575 1.025868)
     (xy -2.353038 1.050248) (xy -2.354962 1.067799) (xy -2.359061 1.082247) (xy -2.366051 1.097320) (xy -2.366418 1.098020) (xy -2.388412 1.130203) (xy -2.415696 1.154897) (xy -2.446763 1.172039)
     (xy -2.480106 1.181567) (xy -2.514220 1.183418) (xy -2.547597 1.177530) (xy -2.578731 1.163838) (xy -2.606115 1.142282) (xy -2.628242 1.112798) (xy -2.630328 1.108999) (xy -2.638446 1.095644)
     (xy -2.645357 1.087614) (xy -2.648189 1.086458) (xy -2.655871 1.092881) (xy -2.665982 1.106395) (xy -2.676922 1.124305) (xy -2.687092 1.143915) (xy -2.694893 1.162530) (xy -2.696789 1.168383)
     (xy -2.702875 1.207639) (xy -2.699328 1.248096) (xy -2.686878 1.288810) (xy -2.666257 1.328840) (xy -2.638195 1.367245) (xy -2.603423 1.403083) (xy -2.562673 1.435412) (xy -2.516676 1.463291)
     (xy -2.466161 1.485777) (xy -2.444750 1.493083) (xy -2.421883 1.499346) (xy -2.399674 1.503167) (xy -2.374210 1.505042) (xy -2.346742 1.505475) (xy -2.320483 1.505284) (xy -2.301701 1.504323)
     (xy -2.287290 1.502014) (xy -2.274146 1.497782) (xy -2.259164 1.491050) (xy -2.253094 1.488086) (xy -2.220057 1.467601) (xy -2.191948 1.440672) (xy -2.168084 1.406317) (xy -2.147780 1.363557)
     (xy -2.130617 1.312333) (xy -2.127145 1.299359) (xy -2.123723 1.284664) (xy -2.120189 1.267236) (xy -2.116382 1.246062) (xy -2.112139 1.220131) (xy -2.107301 1.188430) (xy -2.101704 1.149946)
     (xy -2.095189 1.103667) (xy -2.087593 1.048582) (xy -2.081825 1.006290) (xy -2.070832 0.940932) (xy -2.056919 0.885544) (xy -2.039962 0.839888) (xy -2.019839 0.803727) (xy -1.996426 0.776824)
     (xy -1.969602 0.758942) (xy -1.950238 0.752033) (xy -1.914676 0.746899) (xy -1.883331 0.750737) (xy -1.855763 0.763836) (xy -1.831530 0.786486) (xy -1.810191 0.818978) (xy -1.793976 0.854604)
     (xy -1.785057 0.876306) (xy -1.775370 0.898291) (xy -1.769685 0.910327) (xy -1.762356 0.923844) (xy -1.754965 0.931811) (xy -1.744046 0.936666) (xy -1.726317 0.940810) (xy -1.679609 0.955755)
     (xy -1.636104 0.980246) (xy -1.601593 1.009176) (xy -1.569341 1.048582) (xy -1.545524 1.093383) (xy -1.530311 1.142363) (xy -1.523876 1.194305) (xy -1.526388 1.247991) (xy -1.538019 1.302205)
     (xy -1.554260 1.345708) (xy -1.568144 1.376646) (xy -1.540618 1.536312) (xy -1.502519 1.767022) (xy -1.469305 1.988968) (xy -1.440919 2.202746) (xy -1.417300 2.408950) (xy -1.398391 2.608173)
     (xy -1.384132 2.801010) (xy -1.374463 2.988055) (xy -1.369326 3.169902) (xy -1.368412 3.267326) (xy -1.367896 3.468131) (xy -1.410230 3.490520) (xy -1.429395 3.499667) (xy -1.456017 3.511007)
     (xy -1.487477 3.523493) (xy -1.521156 3.536079) (xy -1.547813 3.545475) (xy -1.593686 3.561472) (xy -1.631347 3.575610) (xy -1.662731 3.589035) (xy -1.689776 3.602894) (xy -1.714416 3.618333)
     (xy -1.738587 3.636496) (xy -1.764225 3.658532) (xy -1.793267 3.685585) (xy -1.807407 3.699167) (xy -1.843755 3.733488) (xy -1.874474 3.760368) (xy -1.900849 3.780377) (xy -1.924162 3.794089)
     (xy -1.945698 3.802075) (xy -1.966740 3.804908) (xy -1.988572 3.803161) (xy -2.012476 3.797406) (xy -2.021417 3.794600) (xy -2.045743 3.786021) (xy -2.070380 3.775964) (xy -2.096326 3.763857)
     (xy -2.124576 3.749127) (xy -2.156128 3.731203) (xy -2.191979 3.709513) (xy -2.233125 3.683484) (xy -2.280563 3.652545) (xy -2.335290 3.616124) (xy -2.352146 3.604804) (xy -2.423892 3.556048)
     (xy -2.488147 3.511168) (xy -2.546465 3.468873) (xy -2.600398 3.427875) (xy -2.651498 3.386883) (xy -2.701318 3.344606) (xy -2.751412 3.299756) (xy -2.803330 3.251041) (xy -2.858627 3.197173)
     (xy -2.918855 3.136861) (xy -2.934681 3.120812) (xy -3.028036 3.023343) (xy -3.120608 2.921645) (xy -3.211416 2.816967) (xy -3.299480 2.710553) (xy -3.383820 2.603653) (xy -3.463454 2.497513)
     (xy -3.537402 2.393380) (xy -3.604683 2.292503) (xy -3.664317 2.196127) (xy -3.672148 2.182812) (xy -3.692345 2.147084) (xy -3.715770 2.103737) (xy -3.741388 2.054841) (xy -3.768166 2.002464)
     (xy -3.795068 1.948674) (xy -3.821061 1.895541) (xy -3.845110 1.845133) (xy -3.866181 1.799519) (xy -3.883241 1.760768) (xy -3.883787 1.759479) (xy -3.962377 1.561013) (xy -4.030559 1.361502)
     (xy -4.070513 1.222815) (xy -3.402450 1.222815) (xy -3.401914 1.239667) (xy -3.400436 1.251910) (xy -3.399014 1.255888) (xy -3.388699 1.259204) (xy -3.371740 1.256679) (xy -3.351275 1.249122)
     (xy -3.333822 1.238451) (xy -3.317967 1.222380) (xy -3.302689 1.199498) (xy -3.286967 1.168394) (xy -3.277990 1.147818) (xy -3.264019 1.118320) (xy -3.249069 1.093335) (xy -3.234212 1.074233)
     (xy -3.220519 1.062384) (xy -3.209060 1.059157) (xy -3.208705 1.059219) (xy -3.200477 1.064270) (xy -3.189341 1.075328) (xy -3.181644 1.084815) (xy -3.164093 1.108166) (xy -3.151024 1.124528)
     (xy -3.140772 1.135530) (xy -3.131678 1.142801) (xy -3.122078 1.147970) (xy -3.113739 1.151374) (xy -3.099007 1.156710) (xy -3.090917 1.158057) (xy -3.086277 1.155331) (xy -3.083134 1.150556)
     (xy -3.066268 1.112702) (xy -3.056397 1.068974) (xy -3.054716 1.052459) (xy -3.055382 1.007247) (xy -3.063842 0.967881) (xy -3.079668 0.934965) (xy -3.102431 0.909099) (xy -3.131703 0.890886)
     (xy -3.167055 0.880928) (xy -3.177693 0.879724) (xy -3.211714 0.876994) (xy -3.247919 0.913424) (xy -3.295366 0.966221) (xy -3.334721 1.020681) (xy -3.365528 1.075892) (xy -3.387332 1.130940)
     (xy -3.399676 1.184912) (xy -3.402450 1.222815) (xy -4.070513 1.222815) (xy -4.088300 1.161076) (xy -4.114535 1.049386) (xy -3.825252 1.049386) (xy -3.820713 1.052133) (xy -3.816615 1.051205)
     (xy -3.809404 1.048796) (xy -3.793486 1.043468) (xy -3.770189 1.035665) (xy -3.740839 1.025831) (xy -3.706765 1.014413) (xy -3.669294 1.001853) (xy -3.656542 0.997579) (xy -3.591475 0.975222)
     (xy -3.535696 0.954813) (xy -3.488190 0.935888) (xy -3.447939 0.917988) (xy -3.413925 0.900652) (xy -3.385133 0.883418) (xy -3.360544 0.865826) (xy -3.353816 0.860394) (xy -3.332194 0.841942)
     (xy -3.318477 0.828377) (xy -3.312108 0.818229) (xy -3.312532 0.810026) (xy -3.319192 0.802298) (xy -3.329147 0.795132) (xy -3.358374 0.773628) (xy -3.378816 0.753599) (xy -3.389954 0.735623)
     (xy -3.391959 0.725580) (xy -3.392774 0.714914) (xy -3.397270 0.710241) (xy -3.408520 0.709103) (xy -3.412600 0.709083) (xy -3.434269 0.710494) (xy -3.463262 0.714361) (xy -3.496755 0.720137)
     (xy -3.531923 0.727273) (xy -3.565943 0.735220) (xy -3.595991 0.743430) (xy -3.606445 0.746724) (xy -3.634714 0.757283) (xy -3.664728 0.770479) (xy -3.693965 0.785009) (xy -3.719906 0.799573)
     (xy -3.740030 0.812866) (xy -3.748941 0.820351) (xy -3.755733 0.830570) (xy -3.753484 0.837934) (xy -3.743350 0.842412) (xy -3.726491 0.843975) (xy -3.704063 0.842592) (xy -3.677225 0.838234)
     (xy -3.647133 0.830870) (xy -3.623833 0.823599) (xy -3.600073 0.815812) (xy -3.579177 0.809533) (xy -3.563656 0.805484) (xy -3.556659 0.804333) (xy -3.545499 0.807660) (xy -3.532756 0.815750)
     (xy -3.531818 0.816538) (xy -3.522652 0.825354) (xy -3.520713 0.832456) (xy -3.524943 0.842714) (xy -3.525780 0.844319) (xy -3.540762 0.865166) (xy -3.562306 0.885411) (xy -3.586756 0.901702)
     (xy -3.590396 0.903571) (xy -3.603963 0.909414) (xy -3.624665 0.917337) (xy -3.649543 0.926241) (xy -3.672417 0.933979) (xy -3.713731 0.948311) (xy -3.746098 0.961506) (xy -3.770960 0.974448)
     (xy -3.789758 0.988021) (xy -3.803935 1.003110) (xy -3.814932 1.020598) (xy -3.815524 1.021746) (xy -3.823531 1.039480) (xy -3.825252 1.049386) (xy -4.114535 1.049386) (xy -4.135565 0.959862)
     (xy -4.172322 0.757988) (xy -4.198536 0.555582) (xy -4.198555 0.555403) (xy -4.210631 0.401762) (xy -4.216024 0.241273) (xy -4.214889 0.075168) (xy -4.207379 -0.095321) (xy -4.193647 -0.268962)
     (xy -4.173848 -0.444525) (xy -4.148135 -0.620777) (xy -4.116662 -0.796487) (xy -4.079583 -0.970424) (xy -4.037052 -1.141355) (xy -3.989222 -1.308049) (xy -3.951132 -1.426105) (xy -3.931939 -1.482187)
     (xy -3.914524 -1.531317) (xy -3.898148 -1.574906) (xy -3.882069 -1.614367) (xy -3.865547 -1.651114) (xy -3.847842 -1.686558) (xy -3.828214 -1.722113) (xy -3.805922 -1.759192) (xy -3.780226 -1.799207)
     (xy -3.750386 -1.843572) (xy -3.715660 -1.893698) (xy -3.678223 -1.946880) (xy -3.654085 -1.981202) (xy -3.626487 -2.020746) (xy -3.597894 -2.061965) (xy -3.570768 -2.101309) (xy -3.553007 -2.127249)
     (xy -3.467965 -2.247946) (xy -3.376298 -2.370672) (xy -3.280553 -2.492173) (xy -3.183276 -2.609195) (xy -3.112054 -2.690713) (xy -3.082650 -2.722882) (xy -3.047271 -2.760414) (xy -3.007584 -2.801629)
     (xy -2.965258 -2.844848) (xy -2.921963 -2.888389) (xy -2.879366 -2.930574) (xy -2.839136 -2.969723) (xy -2.802941 -3.004156) (xy -2.776554 -3.028498) (xy -2.615843 -3.167138) (xy -2.451323 -3.295906)
     (xy -2.283021 -3.414792) (xy -2.110965 -3.523788) (xy -1.935180 -3.622884) (xy -1.755694 -3.712072) (xy -1.572534 -3.791343) (xy -1.385726 -3.860688) (xy -1.195296 -3.920098) (xy -1.001273 -3.969565)
     (xy -0.803683 -4.009079) (xy -0.602552 -4.038632) (xy -0.397907 -4.058215) (xy -0.189776 -4.067818) (xy 0.021816 -4.067434) )(layer F.SilkS) (width  0.010000)
  )
  (fp_poly (pts (xy -0.882382 1.025260) (xy -0.860734 1.078791) (xy -0.842443 1.137382) (xy -0.827128 1.202546) (xy -0.814406 1.275798) (xy -0.808685 1.317625) (xy -0.806596 1.340717) (xy -0.804881 1.372783)
     (xy -0.803539 1.412219) (xy -0.802571 1.457423) (xy -0.801977 1.506791) (xy -0.801757 1.558721) (xy -0.801912 1.611608) (xy -0.802440 1.663850) (xy -0.803343 1.713845) (xy -0.804620 1.759988)
     (xy -0.806272 1.800677) (xy -0.808298 1.834308) (xy -0.808651 1.838854) (xy -0.810665 1.863066) (xy -0.813506 1.896122) (xy -0.817023 1.936327) (xy -0.821067 1.981987) (xy -0.825487 2.031408)
     (xy -0.830133 2.082895) (xy -0.834855 2.134754) (xy -0.836107 2.148416) (xy -0.840928 2.201515) (xy -0.845779 2.255911) (xy -0.850494 2.309685) (xy -0.854907 2.360915) (xy -0.858853 2.407682)
     (xy -0.862168 2.448065) (xy -0.864685 2.480143) (xy -0.865008 2.484437) (xy -0.868808 2.532121) (xy -0.873005 2.577515) (xy -0.877840 2.622456) (xy -0.883550 2.668780) (xy -0.890375 2.718325)
     (xy -0.898553 2.772926) (xy -0.908323 2.834421) (xy -0.918676 2.897187) (xy -0.929230 2.960837) (xy -0.938064 3.015362) (xy -0.945345 3.062051) (xy -0.951242 3.102193) (xy -0.955921 3.137075)
     (xy -0.959550 3.167988) (xy -0.962296 3.196219) (xy -0.964327 3.223058) (xy -0.965811 3.249792) (xy -0.966455 3.264958) (xy -0.967507 3.294402) (xy -0.967909 3.317656) (xy -0.967411 3.337381)
     (xy -0.965760 3.356242) (xy -0.962706 3.376902) (xy -0.957997 3.402023) (xy -0.951381 3.434269) (xy -0.949719 3.442229) (xy -0.939888 3.492622) (xy -0.933421 3.534311) (xy -0.930260 3.568604)
     (xy -0.930344 3.596812) (xy -0.933614 3.620243) (xy -0.940011 3.640207) (xy -0.940651 3.641683) (xy -0.949360 3.657909) (xy -0.959458 3.667340) (xy -0.971713 3.672644) (xy -0.988819 3.678986)
     (xy -1.009136 3.687455) (xy -1.018576 3.691709) (xy -1.049902 3.701830) (xy -1.072140 3.704114) (xy -1.099175 3.704166) (xy -1.102789 3.636697) (xy -1.104151 3.597667) (xy -1.104405 3.551597)
     (xy -1.103533 3.498093) (xy -1.101514 3.436761) (xy -1.098329 3.367206) (xy -1.093957 3.289034) (xy -1.088380 3.201851) (xy -1.081577 3.105262) (xy -1.073528 2.998873) (xy -1.066287 2.907770)
     (xy -1.059196 2.818482) (xy -1.053163 2.738616) (xy -1.048124 2.667073) (xy -1.044017 2.602751) (xy -1.040779 2.544550) (xy -1.038347 2.491369) (xy -1.036659 2.442106) (xy -1.035650 2.395662)
     (xy -1.035323 2.365375) (xy -1.034521 2.241020) (xy -1.056967 2.144687) (xy -1.071047 2.078408) (xy -1.080863 2.017315) (xy -1.086907 1.957145) (xy -1.089676 1.893632) (xy -1.089986 1.860020)
     (xy -1.087712 1.770715) (xy -1.081136 1.674088) (xy -1.070597 1.572325) (xy -1.056436 1.467615) (xy -1.038996 1.362144) (xy -1.018615 1.258101) (xy -0.995636 1.157672) (xy -0.970399 1.063046)
     (xy -0.960744 1.030552) (xy -0.946568 0.984250) (xy -0.901057 0.984250) (xy -0.882382 1.025260) )(layer F.SilkS) (width  0.010000)
  )
  (fp_poly (pts (xy -2.250766 1.164484) (xy -2.236912 1.194140) (xy -2.233215 1.225018) (xy -2.239493 1.256096) (xy -2.255560 1.286347) (xy -2.277100 1.310954) (xy -2.309706 1.336049) (xy -2.344215 1.352039)
     (xy -2.379333 1.358570) (xy -2.413763 1.355290) (xy -2.425879 1.351588) (xy -2.448673 1.340917) (xy -2.461614 1.328359) (xy -2.465429 1.312376) (xy -2.460844 1.291429) (xy -2.457858 1.283753)
     (xy -2.441852 1.258008) (xy -2.415510 1.232757) (xy -2.378731 1.207908) (xy -2.362016 1.198562) (xy -2.338521 1.185854) (xy -2.315365 1.173038) (xy -2.296234 1.162166) (xy -2.289920 1.158453)
     (xy -2.264735 1.143375) (xy -2.250766 1.164484) )(layer F.SilkS) (width  0.010000)
  )
  (fp_poly (pts (xy -2.305886 0.184308) (xy -2.298598 0.185309) (xy -2.257925 0.195782) (xy -2.225448 0.212602) (xy -2.201256 0.235313) (xy -2.185440 0.263458) (xy -2.178089 0.296582) (xy -2.179291 0.334229)
     (xy -2.189137 0.375942) (xy -2.207716 0.421265) (xy -2.235116 0.469743) (xy -2.241076 0.478895) (xy -2.272596 0.520794) (xy -2.309448 0.560501) (xy -2.349595 0.596271) (xy -2.390995 0.626362)
     (xy -2.431611 0.649030) (xy -2.448334 0.656064) (xy -2.496335 0.670341) (xy -2.540268 0.675312) (xy -2.581378 0.670824) (xy -2.620911 0.656723) (xy -2.660113 0.632857) (xy -2.664679 0.629462)
     (xy -2.698396 0.603942) (xy -2.721063 0.615923) (xy -2.736307 0.626344) (xy -2.751532 0.642163) (xy -2.768662 0.665429) (xy -2.771176 0.669177) (xy -2.791308 0.698305) (xy -2.808111 0.719665)
     (xy -2.823131 0.734884) (xy -2.837917 0.745586) (xy -2.849563 0.751530) (xy -2.877068 0.759875) (xy -2.909641 0.764017) (xy -2.942440 0.763471) (xy -2.953912 0.761942) (xy -2.994567 0.750230)
     (xy -3.031687 0.730539) (xy -3.064171 0.704259) (xy -3.090919 0.672780) (xy -3.110829 0.637494) (xy -3.122801 0.599789) (xy -3.125732 0.561056) (xy -3.124312 0.546784) (xy -3.121358 0.533086)
     (xy -3.115733 0.524594) (xy -3.104452 0.517834) (xy -3.096411 0.514293) (xy -3.061999 0.502120) (xy -3.026892 0.495006) (xy -2.988874 0.492826) (xy -2.945732 0.495453) (xy -2.895250 0.502758)
     (xy -2.895225 0.502763) (xy -2.853266 0.509221) (xy -2.818356 0.512366) (xy -2.787512 0.512250) (xy -2.757751 0.508926) (xy -2.739656 0.505516) (xy -2.703181 0.495127) (xy -2.669314 0.479514)
     (xy -2.636907 0.457753) (xy -2.604813 0.428917) (xy -2.571887 0.392081) (xy -2.536980 0.346318) (xy -2.529665 0.336020) (xy -2.496655 0.290970) (xy -2.467055 0.254516) (xy -2.441157 0.226989)
     (xy -2.419254 0.208722) (xy -2.415671 0.206390) (xy -2.382664 0.191589) (xy -2.344897 0.184017) (xy -2.305886 0.184308) )(layer F.SilkS) (width  0.010000)
  )
  (fp_poly (pts (xy -2.632773 0.237336) (xy -2.631163 0.244959) (xy -2.630315 0.258945) (xy -2.629995 0.280915) (xy -2.629959 0.298700) (xy -2.629959 0.365280) (xy -2.647157 0.375795) (xy -2.683986 0.395055)
     (xy -2.722654 0.409517) (xy -2.761075 0.418792) (xy -2.797162 0.422489) (xy -2.828828 0.420220) (xy -2.849979 0.413659) (xy -2.870840 0.400478) (xy -2.886191 0.384133) (xy -2.893981 0.367022)
     (xy -2.894542 0.361554) (xy -2.890677 0.343397) (xy -2.880499 0.322642) (xy -2.866132 0.303081) (xy -2.856410 0.293516) (xy -2.827850 0.274864) (xy -2.790600 0.259996) (xy -2.744217 0.248776)
     (xy -2.688261 0.241069) (xy -2.685521 0.240804) (xy -2.665549 0.238667) (xy -2.648894 0.236469) (xy -2.639219 0.234697) (xy -2.635381 0.234456) (xy -2.632773 0.237336) )(layer F.SilkS) (width  0.010000)
  )
  (fp_poly (pts (xy -3.186997 -0.067172) (xy -3.146908 -0.055512) (xy -3.110638 -0.037799) (xy -3.083271 -0.016922) (xy -3.059959 0.010161) (xy -3.046085 0.038214) (xy -3.040586 0.069554) (xy -3.040396 0.076729)
     (xy -3.045027 0.112901) (xy -3.058863 0.144326) (xy -3.081302 0.170223) (xy -3.111736 0.189812) (xy -3.134909 0.198612) (xy -3.161927 0.203752) (xy -3.194774 0.205712) (xy -3.229189 0.204510)
     (xy -3.260914 0.200167) (xy -3.270250 0.198000) (xy -3.313367 0.182894) (xy -3.352592 0.161925) (xy -3.384903 0.136748) (xy -3.388361 0.133330) (xy -3.413868 0.107361) (xy -3.407793 0.073857)
     (xy -3.395650 0.030607) (xy -3.376202 -0.005008) (xy -3.349286 -0.033152) (xy -3.314742 -0.053989) (xy -3.272407 -0.067682) (xy -3.266543 -0.068903) (xy -3.227884 -0.071921) (xy -3.186997 -0.067172) )(layer F.SilkS) (width  0.010000)
  )
  (fp_poly (pts (xy -2.197275 -0.432076) (xy -2.154952 -0.423103) (xy -2.120041 -0.408631) (xy -2.093240 -0.388952) (xy -2.075247 -0.364357) (xy -2.074900 -0.363649) (xy -2.066315 -0.342129) (xy -2.064563 -0.324462)
     (xy -2.069582 -0.306474) (xy -2.073885 -0.297446) (xy -2.086891 -0.277234) (xy -2.105170 -0.257342) (xy -2.129338 -0.237432) (xy -2.160015 -0.217165) (xy -2.197818 -0.196202) (xy -2.243364 -0.174204)
     (xy -2.297271 -0.150833) (xy -2.360157 -0.125749) (xy -2.432639 -0.098613) (xy -2.443388 -0.094703) (xy -2.476752 -0.082500) (xy -2.508610 -0.070651) (xy -2.536928 -0.059930) (xy -2.559672 -0.051107)
     (xy -2.574808 -0.044954) (xy -2.576378 -0.044273) (xy -2.591795 -0.037579) (xy -2.602668 -0.033035) (xy -2.606188 -0.031750) (xy -2.608424 -0.036139) (xy -2.610749 -0.043657) (xy -2.614461 -0.075339)
     (xy -2.610582 -0.112448) (xy -2.599456 -0.153406) (xy -2.581425 -0.196638) (xy -2.574459 -0.210309) (xy -2.542380 -0.263620) (xy -2.505677 -0.310416) (xy -2.465249 -0.351060) (xy -2.423405 -0.384917)
     (xy -2.381495 -0.409369) (xy -2.337240 -0.425290) (xy -2.288365 -0.433557) (xy -2.246313 -0.435258) (xy -2.197275 -0.432076) )(layer F.SilkS) (width  0.010000)
  )
)
