G04 #@! TF.FileFunction,Legend,Top*
%FSLAX46Y46*%
G04 Gerber Fmt 4.6, Leading zero omitted, Abs format (unit mm)*
G04 Created by KiCad (PCBNEW 4.0.7) date 2019 February 13, Wednesday 08:43:58*
%MOMM*%
%LPD*%
G01*
G04 APERTURE LIST*
%ADD10C,0.100000*%
%ADD11C,0.300000*%
%ADD12C,0.250000*%
%ADD13C,0.120000*%
%ADD14C,0.150000*%
G04 APERTURE END LIST*
D10*
D11*
X110631857Y-107266285D02*
X110631857Y-106766285D01*
X111417571Y-106551999D02*
X111417571Y-107266285D01*
X109917571Y-107266285D01*
X109917571Y-106551999D01*
X111346143Y-105980571D02*
X111417571Y-105766285D01*
X111417571Y-105409142D01*
X111346143Y-105266285D01*
X111274714Y-105194856D01*
X111131857Y-105123428D01*
X110989000Y-105123428D01*
X110846143Y-105194856D01*
X110774714Y-105266285D01*
X110703286Y-105409142D01*
X110631857Y-105694856D01*
X110560429Y-105837714D01*
X110489000Y-105909142D01*
X110346143Y-105980571D01*
X110203286Y-105980571D01*
X110060429Y-105909142D01*
X109989000Y-105837714D01*
X109917571Y-105694856D01*
X109917571Y-105337714D01*
X109989000Y-105123428D01*
X111417571Y-104480571D02*
X109917571Y-104480571D01*
X109917571Y-103909143D01*
X109989000Y-103766285D01*
X110060429Y-103694857D01*
X110203286Y-103623428D01*
X110417571Y-103623428D01*
X110560429Y-103694857D01*
X110631857Y-103766285D01*
X110703286Y-103909143D01*
X110703286Y-104480571D01*
X109917571Y-103123428D02*
X109917571Y-102194857D01*
X110489000Y-102694857D01*
X110489000Y-102480571D01*
X110560429Y-102337714D01*
X110631857Y-102266285D01*
X110774714Y-102194857D01*
X111131857Y-102194857D01*
X111274714Y-102266285D01*
X111346143Y-102337714D01*
X111417571Y-102480571D01*
X111417571Y-102909143D01*
X111346143Y-103052000D01*
X111274714Y-103123428D01*
X110060429Y-101623429D02*
X109989000Y-101552000D01*
X109917571Y-101409143D01*
X109917571Y-101052000D01*
X109989000Y-100909143D01*
X110060429Y-100837714D01*
X110203286Y-100766286D01*
X110346143Y-100766286D01*
X110560429Y-100837714D01*
X111417571Y-101694857D01*
X111417571Y-100766286D01*
X110631857Y-98480572D02*
X110703286Y-98266286D01*
X110774714Y-98194858D01*
X110917571Y-98123429D01*
X111131857Y-98123429D01*
X111274714Y-98194858D01*
X111346143Y-98266286D01*
X111417571Y-98409144D01*
X111417571Y-98980572D01*
X109917571Y-98980572D01*
X109917571Y-98480572D01*
X109989000Y-98337715D01*
X110060429Y-98266286D01*
X110203286Y-98194858D01*
X110346143Y-98194858D01*
X110489000Y-98266286D01*
X110560429Y-98337715D01*
X110631857Y-98480572D01*
X110631857Y-98980572D01*
X111417571Y-97480572D02*
X110417571Y-97480572D01*
X110703286Y-97480572D02*
X110560429Y-97409144D01*
X110489000Y-97337715D01*
X110417571Y-97194858D01*
X110417571Y-97052001D01*
X111346143Y-95980573D02*
X111417571Y-96123430D01*
X111417571Y-96409144D01*
X111346143Y-96552001D01*
X111203286Y-96623430D01*
X110631857Y-96623430D01*
X110489000Y-96552001D01*
X110417571Y-96409144D01*
X110417571Y-96123430D01*
X110489000Y-95980573D01*
X110631857Y-95909144D01*
X110774714Y-95909144D01*
X110917571Y-96623430D01*
X111417571Y-94623430D02*
X110631857Y-94623430D01*
X110489000Y-94694859D01*
X110417571Y-94837716D01*
X110417571Y-95123430D01*
X110489000Y-95266287D01*
X111346143Y-94623430D02*
X111417571Y-94766287D01*
X111417571Y-95123430D01*
X111346143Y-95266287D01*
X111203286Y-95337716D01*
X111060429Y-95337716D01*
X110917571Y-95266287D01*
X110846143Y-95123430D01*
X110846143Y-94766287D01*
X110774714Y-94623430D01*
X111417571Y-93909144D02*
X109917571Y-93909144D01*
X110846143Y-93766287D02*
X111417571Y-93337716D01*
X110417571Y-93337716D02*
X110989000Y-93909144D01*
X111417571Y-92480572D02*
X111346143Y-92623430D01*
X111274714Y-92694858D01*
X111131857Y-92766287D01*
X110703286Y-92766287D01*
X110560429Y-92694858D01*
X110489000Y-92623430D01*
X110417571Y-92480572D01*
X110417571Y-92266287D01*
X110489000Y-92123430D01*
X110560429Y-92052001D01*
X110703286Y-91980572D01*
X111131857Y-91980572D01*
X111274714Y-92052001D01*
X111346143Y-92123430D01*
X111417571Y-92266287D01*
X111417571Y-92480572D01*
X110417571Y-90694858D02*
X111417571Y-90694858D01*
X110417571Y-91337715D02*
X111203286Y-91337715D01*
X111346143Y-91266287D01*
X111417571Y-91123429D01*
X111417571Y-90909144D01*
X111346143Y-90766287D01*
X111274714Y-90694858D01*
X110417571Y-90194858D02*
X110417571Y-89623429D01*
X109917571Y-89980572D02*
X111203286Y-89980572D01*
X111346143Y-89909144D01*
X111417571Y-89766286D01*
X111417571Y-89623429D01*
X112967571Y-108873427D02*
X113967571Y-108516284D01*
X112967571Y-108159142D01*
X113824714Y-107587713D02*
X113896143Y-107516285D01*
X113967571Y-107587713D01*
X113896143Y-107659142D01*
X113824714Y-107587713D01*
X113967571Y-107587713D01*
X113967571Y-106087713D02*
X113967571Y-106944856D01*
X113967571Y-106516284D02*
X112467571Y-106516284D01*
X112681857Y-106659141D01*
X112824714Y-106801999D01*
X112896143Y-106944856D01*
X113824714Y-105444856D02*
X113896143Y-105373428D01*
X113967571Y-105444856D01*
X113896143Y-105516285D01*
X113824714Y-105444856D01*
X113967571Y-105444856D01*
X113967571Y-103944856D02*
X113967571Y-104801999D01*
X113967571Y-104373427D02*
X112467571Y-104373427D01*
X112681857Y-104516284D01*
X112824714Y-104659142D01*
X112896143Y-104801999D01*
X113396143Y-102159142D02*
X113396143Y-101016285D01*
X113181857Y-98659142D02*
X113181857Y-99159142D01*
X113967571Y-99159142D02*
X112467571Y-99159142D01*
X112467571Y-98444856D01*
X113896143Y-97302000D02*
X113967571Y-97444857D01*
X113967571Y-97730571D01*
X113896143Y-97873428D01*
X113753286Y-97944857D01*
X113181857Y-97944857D01*
X113039000Y-97873428D01*
X112967571Y-97730571D01*
X112967571Y-97444857D01*
X113039000Y-97302000D01*
X113181857Y-97230571D01*
X113324714Y-97230571D01*
X113467571Y-97944857D01*
X113967571Y-96587714D02*
X112467571Y-96587714D01*
X113039000Y-96587714D02*
X112967571Y-96444857D01*
X112967571Y-96159143D01*
X113039000Y-96016286D01*
X113110429Y-95944857D01*
X113253286Y-95873428D01*
X113681857Y-95873428D01*
X113824714Y-95944857D01*
X113896143Y-96016286D01*
X113967571Y-96159143D01*
X113967571Y-96444857D01*
X113896143Y-96587714D01*
X113824714Y-95230571D02*
X113896143Y-95159143D01*
X113967571Y-95230571D01*
X113896143Y-95302000D01*
X113824714Y-95230571D01*
X113967571Y-95230571D01*
X112610429Y-93444857D02*
X112539000Y-93373428D01*
X112467571Y-93230571D01*
X112467571Y-92873428D01*
X112539000Y-92730571D01*
X112610429Y-92659142D01*
X112753286Y-92587714D01*
X112896143Y-92587714D01*
X113110429Y-92659142D01*
X113967571Y-93516285D01*
X113967571Y-92587714D01*
X112467571Y-91659143D02*
X112467571Y-91516286D01*
X112539000Y-91373429D01*
X112610429Y-91302000D01*
X112753286Y-91230571D01*
X113039000Y-91159143D01*
X113396143Y-91159143D01*
X113681857Y-91230571D01*
X113824714Y-91302000D01*
X113896143Y-91373429D01*
X113967571Y-91516286D01*
X113967571Y-91659143D01*
X113896143Y-91802000D01*
X113824714Y-91873429D01*
X113681857Y-91944857D01*
X113396143Y-92016286D01*
X113039000Y-92016286D01*
X112753286Y-91944857D01*
X112610429Y-91873429D01*
X112539000Y-91802000D01*
X112467571Y-91659143D01*
X113967571Y-89730572D02*
X113967571Y-90587715D01*
X113967571Y-90159143D02*
X112467571Y-90159143D01*
X112681857Y-90302000D01*
X112824714Y-90444858D01*
X112896143Y-90587715D01*
X113967571Y-89016287D02*
X113967571Y-88730572D01*
X113896143Y-88587715D01*
X113824714Y-88516287D01*
X113610429Y-88373429D01*
X113324714Y-88302001D01*
X112753286Y-88302001D01*
X112610429Y-88373429D01*
X112539000Y-88444858D01*
X112467571Y-88587715D01*
X112467571Y-88873429D01*
X112539000Y-89016287D01*
X112610429Y-89087715D01*
X112753286Y-89159144D01*
X113110429Y-89159144D01*
X113253286Y-89087715D01*
X113324714Y-89016287D01*
X113396143Y-88873429D01*
X113396143Y-88587715D01*
X113324714Y-88444858D01*
X113253286Y-88373429D01*
X113110429Y-88302001D01*
D10*
X168854381Y-94559333D02*
X168854381Y-95130762D01*
X168854381Y-94845048D02*
X167854381Y-94845048D01*
X167997238Y-94940286D01*
X168092476Y-95035524D01*
X168140095Y-95130762D01*
X168759143Y-94130762D02*
X168806762Y-94083143D01*
X168854381Y-94130762D01*
X168806762Y-94178381D01*
X168759143Y-94130762D01*
X168854381Y-94130762D01*
X168854381Y-93130762D02*
X168854381Y-93702191D01*
X168854381Y-93416477D02*
X167854381Y-93416477D01*
X167997238Y-93511715D01*
X168092476Y-93606953D01*
X168140095Y-93702191D01*
X168854381Y-92702191D02*
X167854381Y-92702191D01*
X168473429Y-92606953D02*
X168854381Y-92321238D01*
X168187714Y-92321238D02*
X168568667Y-92702191D01*
X147264381Y-95575333D02*
X147264381Y-96146762D01*
X147264381Y-95861048D02*
X146264381Y-95861048D01*
X146407238Y-95956286D01*
X146502476Y-96051524D01*
X146550095Y-96146762D01*
X147169143Y-95146762D02*
X147216762Y-95099143D01*
X147264381Y-95146762D01*
X147216762Y-95194381D01*
X147169143Y-95146762D01*
X147264381Y-95146762D01*
X147264381Y-94146762D02*
X147264381Y-94718191D01*
X147264381Y-94432477D02*
X146264381Y-94432477D01*
X146407238Y-94527715D01*
X146502476Y-94622953D01*
X146550095Y-94718191D01*
X147264381Y-93718191D02*
X146264381Y-93718191D01*
X146883429Y-93622953D02*
X147264381Y-93337238D01*
X146597714Y-93337238D02*
X146978667Y-93718191D01*
X159170762Y-109672381D02*
X158599333Y-109672381D01*
X158885047Y-109672381D02*
X158885047Y-108672381D01*
X158789809Y-108815238D01*
X158694571Y-108910476D01*
X158599333Y-108958095D01*
X159789809Y-108672381D02*
X159885048Y-108672381D01*
X159980286Y-108720000D01*
X160027905Y-108767619D01*
X160075524Y-108862857D01*
X160123143Y-109053333D01*
X160123143Y-109291429D01*
X160075524Y-109481905D01*
X160027905Y-109577143D01*
X159980286Y-109624762D01*
X159885048Y-109672381D01*
X159789809Y-109672381D01*
X159694571Y-109624762D01*
X159646952Y-109577143D01*
X159599333Y-109481905D01*
X159551714Y-109291429D01*
X159551714Y-109053333D01*
X159599333Y-108862857D01*
X159646952Y-108767619D01*
X159694571Y-108720000D01*
X159789809Y-108672381D01*
X160551714Y-109672381D02*
X160551714Y-108672381D01*
X160646952Y-109291429D02*
X160932667Y-109672381D01*
X160932667Y-109005714D02*
X160551714Y-109386667D01*
X159170762Y-114752381D02*
X158599333Y-114752381D01*
X158885047Y-114752381D02*
X158885047Y-113752381D01*
X158789809Y-113895238D01*
X158694571Y-113990476D01*
X158599333Y-114038095D01*
X159789809Y-113752381D02*
X159885048Y-113752381D01*
X159980286Y-113800000D01*
X160027905Y-113847619D01*
X160075524Y-113942857D01*
X160123143Y-114133333D01*
X160123143Y-114371429D01*
X160075524Y-114561905D01*
X160027905Y-114657143D01*
X159980286Y-114704762D01*
X159885048Y-114752381D01*
X159789809Y-114752381D01*
X159694571Y-114704762D01*
X159646952Y-114657143D01*
X159599333Y-114561905D01*
X159551714Y-114371429D01*
X159551714Y-114133333D01*
X159599333Y-113942857D01*
X159646952Y-113847619D01*
X159694571Y-113800000D01*
X159789809Y-113752381D01*
X160551714Y-114752381D02*
X160551714Y-113752381D01*
X160646952Y-114371429D02*
X160932667Y-114752381D01*
X160932667Y-114085714D02*
X160551714Y-114466667D01*
X163076000Y-86352095D02*
X163028381Y-86447333D01*
X163028381Y-86590190D01*
X163076000Y-86733048D01*
X163171238Y-86828286D01*
X163266476Y-86875905D01*
X163456952Y-86923524D01*
X163599810Y-86923524D01*
X163790286Y-86875905D01*
X163885524Y-86828286D01*
X163980762Y-86733048D01*
X164028381Y-86590190D01*
X164028381Y-86494952D01*
X163980762Y-86352095D01*
X163933143Y-86304476D01*
X163599810Y-86304476D01*
X163599810Y-86494952D01*
X165314381Y-87947333D02*
X166314381Y-87614000D01*
X165314381Y-87280666D01*
X166314381Y-86947333D02*
X165314381Y-86947333D01*
X165314381Y-86709238D01*
X165362000Y-86566380D01*
X165457238Y-86471142D01*
X165552476Y-86423523D01*
X165742952Y-86375904D01*
X165885810Y-86375904D01*
X166076286Y-86423523D01*
X166171524Y-86471142D01*
X166266762Y-86566380D01*
X166314381Y-86709238D01*
X166314381Y-86947333D01*
X166314381Y-85947333D02*
X165314381Y-85947333D01*
X165314381Y-85709238D01*
X165362000Y-85566380D01*
X165457238Y-85471142D01*
X165552476Y-85423523D01*
X165742952Y-85375904D01*
X165885810Y-85375904D01*
X166076286Y-85423523D01*
X166171524Y-85471142D01*
X166266762Y-85566380D01*
X166314381Y-85709238D01*
X166314381Y-85947333D01*
X167854381Y-88487048D02*
X167854381Y-87915619D01*
X168854381Y-88201334D02*
X167854381Y-88201334D01*
X168854381Y-87153714D02*
X168330571Y-87153714D01*
X168235333Y-87201333D01*
X168187714Y-87296571D01*
X168187714Y-87487048D01*
X168235333Y-87582286D01*
X168806762Y-87153714D02*
X168854381Y-87248952D01*
X168854381Y-87487048D01*
X168806762Y-87582286D01*
X168711524Y-87629905D01*
X168616286Y-87629905D01*
X168521048Y-87582286D01*
X168473429Y-87487048D01*
X168473429Y-87248952D01*
X168425810Y-87153714D01*
X168806762Y-86248952D02*
X168854381Y-86344190D01*
X168854381Y-86534667D01*
X168806762Y-86629905D01*
X168759143Y-86677524D01*
X168663905Y-86725143D01*
X168378190Y-86725143D01*
X168282952Y-86677524D01*
X168235333Y-86629905D01*
X168187714Y-86534667D01*
X168187714Y-86344190D01*
X168235333Y-86248952D01*
X168854381Y-85820381D02*
X167854381Y-85820381D01*
X168854381Y-85391809D02*
X168330571Y-85391809D01*
X168235333Y-85439428D01*
X168187714Y-85534666D01*
X168187714Y-85677524D01*
X168235333Y-85772762D01*
X168282952Y-85820381D01*
X155662381Y-88487048D02*
X155662381Y-87915619D01*
X156662381Y-88201334D02*
X155662381Y-88201334D01*
X156662381Y-87153714D02*
X156138571Y-87153714D01*
X156043333Y-87201333D01*
X155995714Y-87296571D01*
X155995714Y-87487048D01*
X156043333Y-87582286D01*
X156614762Y-87153714D02*
X156662381Y-87248952D01*
X156662381Y-87487048D01*
X156614762Y-87582286D01*
X156519524Y-87629905D01*
X156424286Y-87629905D01*
X156329048Y-87582286D01*
X156281429Y-87487048D01*
X156281429Y-87248952D01*
X156233810Y-87153714D01*
X156614762Y-86248952D02*
X156662381Y-86344190D01*
X156662381Y-86534667D01*
X156614762Y-86629905D01*
X156567143Y-86677524D01*
X156471905Y-86725143D01*
X156186190Y-86725143D01*
X156090952Y-86677524D01*
X156043333Y-86629905D01*
X155995714Y-86534667D01*
X155995714Y-86344190D01*
X156043333Y-86248952D01*
X156662381Y-85820381D02*
X155662381Y-85820381D01*
X156662381Y-85391809D02*
X156138571Y-85391809D01*
X156043333Y-85439428D01*
X155995714Y-85534666D01*
X155995714Y-85677524D01*
X156043333Y-85772762D01*
X156090952Y-85820381D01*
X155376952Y-94956381D02*
X155948381Y-94956381D01*
X155662666Y-95956381D02*
X155662666Y-94956381D01*
X156853143Y-95861143D02*
X156805524Y-95908762D01*
X156662667Y-95956381D01*
X156567429Y-95956381D01*
X156424571Y-95908762D01*
X156329333Y-95813524D01*
X156281714Y-95718286D01*
X156234095Y-95527810D01*
X156234095Y-95384952D01*
X156281714Y-95194476D01*
X156329333Y-95099238D01*
X156424571Y-95004000D01*
X156567429Y-94956381D01*
X156662667Y-94956381D01*
X156805524Y-95004000D01*
X156853143Y-95051619D01*
X157710286Y-95289714D02*
X157710286Y-95956381D01*
X157472190Y-94908762D02*
X157234095Y-95623048D01*
X157853143Y-95623048D01*
X158662667Y-95289714D02*
X158662667Y-95956381D01*
X158424571Y-94908762D02*
X158186476Y-95623048D01*
X158805524Y-95623048D01*
X159138857Y-95051619D02*
X159186476Y-95004000D01*
X159281714Y-94956381D01*
X159519810Y-94956381D01*
X159615048Y-95004000D01*
X159662667Y-95051619D01*
X159710286Y-95146857D01*
X159710286Y-95242095D01*
X159662667Y-95384952D01*
X159091238Y-95956381D01*
X159710286Y-95956381D01*
X160043619Y-94956381D02*
X160710286Y-94956381D01*
X160281714Y-95956381D01*
X161043619Y-95670667D02*
X161519810Y-95670667D01*
X160948381Y-95956381D02*
X161281714Y-94956381D01*
X161615048Y-95956381D01*
X138390381Y-99305619D02*
X139199905Y-99305619D01*
X139295143Y-99258000D01*
X139342762Y-99210381D01*
X139390381Y-99115143D01*
X139390381Y-98924666D01*
X139342762Y-98829428D01*
X139295143Y-98781809D01*
X139199905Y-98734190D01*
X138390381Y-98734190D01*
X139390381Y-97781809D02*
X139390381Y-98258000D01*
X138390381Y-98258000D01*
X139390381Y-97448476D02*
X138390381Y-97448476D01*
X139390381Y-96877047D01*
X138390381Y-96877047D01*
X138485619Y-96448476D02*
X138438000Y-96400857D01*
X138390381Y-96305619D01*
X138390381Y-96067523D01*
X138438000Y-95972285D01*
X138485619Y-95924666D01*
X138580857Y-95877047D01*
X138676095Y-95877047D01*
X138818952Y-95924666D01*
X139390381Y-96496095D01*
X139390381Y-95877047D01*
X138818952Y-95305619D02*
X138771333Y-95400857D01*
X138723714Y-95448476D01*
X138628476Y-95496095D01*
X138580857Y-95496095D01*
X138485619Y-95448476D01*
X138438000Y-95400857D01*
X138390381Y-95305619D01*
X138390381Y-95115142D01*
X138438000Y-95019904D01*
X138485619Y-94972285D01*
X138580857Y-94924666D01*
X138628476Y-94924666D01*
X138723714Y-94972285D01*
X138771333Y-95019904D01*
X138818952Y-95115142D01*
X138818952Y-95305619D01*
X138866571Y-95400857D01*
X138914190Y-95448476D01*
X139009429Y-95496095D01*
X139199905Y-95496095D01*
X139295143Y-95448476D01*
X139342762Y-95400857D01*
X139390381Y-95305619D01*
X139390381Y-95115142D01*
X139342762Y-95019904D01*
X139295143Y-94972285D01*
X139199905Y-94924666D01*
X139009429Y-94924666D01*
X138914190Y-94972285D01*
X138866571Y-95019904D01*
X138818952Y-95115142D01*
X138390381Y-94305619D02*
X138390381Y-94210380D01*
X138438000Y-94115142D01*
X138485619Y-94067523D01*
X138580857Y-94019904D01*
X138771333Y-93972285D01*
X139009429Y-93972285D01*
X139199905Y-94019904D01*
X139295143Y-94067523D01*
X139342762Y-94115142D01*
X139390381Y-94210380D01*
X139390381Y-94305619D01*
X139342762Y-94400857D01*
X139295143Y-94448476D01*
X139199905Y-94496095D01*
X139009429Y-94543714D01*
X138771333Y-94543714D01*
X138580857Y-94496095D01*
X138485619Y-94448476D01*
X138438000Y-94400857D01*
X138390381Y-94305619D01*
X138390381Y-93638952D02*
X138390381Y-93019904D01*
X138771333Y-93353238D01*
X138771333Y-93210380D01*
X138818952Y-93115142D01*
X138866571Y-93067523D01*
X138961810Y-93019904D01*
X139199905Y-93019904D01*
X139295143Y-93067523D01*
X139342762Y-93115142D01*
X139390381Y-93210380D01*
X139390381Y-93496095D01*
X139342762Y-93591333D01*
X139295143Y-93638952D01*
X139104667Y-92638952D02*
X139104667Y-92162761D01*
X139390381Y-92734190D02*
X138390381Y-92400857D01*
X139390381Y-92067523D01*
X153122381Y-87947333D02*
X154122381Y-87614000D01*
X153122381Y-87280666D01*
X154122381Y-86947333D02*
X153122381Y-86947333D01*
X153122381Y-86709238D01*
X153170000Y-86566380D01*
X153265238Y-86471142D01*
X153360476Y-86423523D01*
X153550952Y-86375904D01*
X153693810Y-86375904D01*
X153884286Y-86423523D01*
X153979524Y-86471142D01*
X154074762Y-86566380D01*
X154122381Y-86709238D01*
X154122381Y-86947333D01*
X154122381Y-85947333D02*
X153122381Y-85947333D01*
X153122381Y-85709238D01*
X153170000Y-85566380D01*
X153265238Y-85471142D01*
X153360476Y-85423523D01*
X153550952Y-85375904D01*
X153693810Y-85375904D01*
X153884286Y-85423523D01*
X153979524Y-85471142D01*
X154074762Y-85566380D01*
X154122381Y-85709238D01*
X154122381Y-85947333D01*
X150630000Y-86352095D02*
X150582381Y-86447333D01*
X150582381Y-86590190D01*
X150630000Y-86733048D01*
X150725238Y-86828286D01*
X150820476Y-86875905D01*
X151010952Y-86923524D01*
X151153810Y-86923524D01*
X151344286Y-86875905D01*
X151439524Y-86828286D01*
X151534762Y-86733048D01*
X151582381Y-86590190D01*
X151582381Y-86494952D01*
X151534762Y-86352095D01*
X151487143Y-86304476D01*
X151153810Y-86304476D01*
X151153810Y-86494952D01*
D11*
X134959714Y-88918857D02*
X134959714Y-88004571D01*
X135416857Y-88461714D02*
X134502571Y-88461714D01*
X134216857Y-86861714D02*
X134216857Y-87433143D01*
X134788286Y-87490286D01*
X134731143Y-87433143D01*
X134674000Y-87318857D01*
X134674000Y-87033143D01*
X134731143Y-86918857D01*
X134788286Y-86861714D01*
X134902571Y-86804571D01*
X135188286Y-86804571D01*
X135302571Y-86861714D01*
X135359714Y-86918857D01*
X135416857Y-87033143D01*
X135416857Y-87318857D01*
X135359714Y-87433143D01*
X135302571Y-87490286D01*
X134216857Y-86461714D02*
X135416857Y-86061714D01*
X134216857Y-85661714D01*
X137068000Y-88290285D02*
X137010857Y-88404571D01*
X137010857Y-88576000D01*
X137068000Y-88747428D01*
X137182286Y-88861714D01*
X137296571Y-88918857D01*
X137525143Y-88976000D01*
X137696571Y-88976000D01*
X137925143Y-88918857D01*
X138039429Y-88861714D01*
X138153714Y-88747428D01*
X138210857Y-88576000D01*
X138210857Y-88461714D01*
X138153714Y-88290285D01*
X138096571Y-88233142D01*
X137696571Y-88233142D01*
X137696571Y-88461714D01*
X138210857Y-87718857D02*
X137010857Y-87718857D01*
X138210857Y-87033142D01*
X137010857Y-87033142D01*
X138210857Y-86461714D02*
X137010857Y-86461714D01*
X137010857Y-86175999D01*
X137068000Y-86004571D01*
X137182286Y-85890285D01*
X137296571Y-85833142D01*
X137525143Y-85775999D01*
X137696571Y-85775999D01*
X137925143Y-85833142D01*
X138039429Y-85890285D01*
X138153714Y-86004571D01*
X138210857Y-86175999D01*
X138210857Y-86461714D01*
D10*
X163171238Y-116895714D02*
X163123619Y-117038571D01*
X163123619Y-117276667D01*
X163171238Y-117371905D01*
X163218857Y-117419524D01*
X163314095Y-117467143D01*
X163409333Y-117467143D01*
X163504571Y-117419524D01*
X163552190Y-117371905D01*
X163599810Y-117276667D01*
X163647429Y-117086190D01*
X163695048Y-116990952D01*
X163742667Y-116943333D01*
X163837905Y-116895714D01*
X163933143Y-116895714D01*
X164028381Y-116943333D01*
X164076000Y-116990952D01*
X164123619Y-117086190D01*
X164123619Y-117324286D01*
X164076000Y-117467143D01*
X163123619Y-117895714D02*
X164123619Y-117895714D01*
X164123619Y-118133809D01*
X164076000Y-118276667D01*
X163980762Y-118371905D01*
X163885524Y-118419524D01*
X163695048Y-118467143D01*
X163552190Y-118467143D01*
X163361714Y-118419524D01*
X163266476Y-118371905D01*
X163171238Y-118276667D01*
X163123619Y-118133809D01*
X163123619Y-117895714D01*
X163409333Y-118848095D02*
X163409333Y-119324286D01*
X163123619Y-118752857D02*
X164123619Y-119086190D01*
X163123619Y-119419524D01*
X160377238Y-116919524D02*
X160329619Y-117062381D01*
X160329619Y-117300477D01*
X160377238Y-117395715D01*
X160424857Y-117443334D01*
X160520095Y-117490953D01*
X160615333Y-117490953D01*
X160710571Y-117443334D01*
X160758190Y-117395715D01*
X160805810Y-117300477D01*
X160853429Y-117110000D01*
X160901048Y-117014762D01*
X160948667Y-116967143D01*
X161043905Y-116919524D01*
X161139143Y-116919524D01*
X161234381Y-116967143D01*
X161282000Y-117014762D01*
X161329619Y-117110000D01*
X161329619Y-117348096D01*
X161282000Y-117490953D01*
X160424857Y-118490953D02*
X160377238Y-118443334D01*
X160329619Y-118300477D01*
X160329619Y-118205239D01*
X160377238Y-118062381D01*
X160472476Y-117967143D01*
X160567714Y-117919524D01*
X160758190Y-117871905D01*
X160901048Y-117871905D01*
X161091524Y-117919524D01*
X161186762Y-117967143D01*
X161282000Y-118062381D01*
X161329619Y-118205239D01*
X161329619Y-118300477D01*
X161282000Y-118443334D01*
X161234381Y-118490953D01*
X160329619Y-119395715D02*
X160329619Y-118919524D01*
X161329619Y-118919524D01*
X115784381Y-118586095D02*
X115784381Y-117967047D01*
X116165333Y-118300381D01*
X116165333Y-118157523D01*
X116212952Y-118062285D01*
X116260571Y-118014666D01*
X116355810Y-117967047D01*
X116593905Y-117967047D01*
X116689143Y-118014666D01*
X116736762Y-118062285D01*
X116784381Y-118157523D01*
X116784381Y-118443238D01*
X116736762Y-118538476D01*
X116689143Y-118586095D01*
X115784381Y-117681333D02*
X116784381Y-117348000D01*
X115784381Y-117014666D01*
X115784381Y-116776571D02*
X115784381Y-116157523D01*
X116165333Y-116490857D01*
X116165333Y-116347999D01*
X116212952Y-116252761D01*
X116260571Y-116205142D01*
X116355810Y-116157523D01*
X116593905Y-116157523D01*
X116689143Y-116205142D01*
X116736762Y-116252761D01*
X116784381Y-116347999D01*
X116784381Y-116633714D01*
X116736762Y-116728952D01*
X116689143Y-116776571D01*
X110752000Y-118109904D02*
X110704381Y-118205142D01*
X110704381Y-118347999D01*
X110752000Y-118490857D01*
X110847238Y-118586095D01*
X110942476Y-118633714D01*
X111132952Y-118681333D01*
X111275810Y-118681333D01*
X111466286Y-118633714D01*
X111561524Y-118586095D01*
X111656762Y-118490857D01*
X111704381Y-118347999D01*
X111704381Y-118252761D01*
X111656762Y-118109904D01*
X111609143Y-118062285D01*
X111275810Y-118062285D01*
X111275810Y-118252761D01*
X111704381Y-117633714D02*
X110704381Y-117633714D01*
X111704381Y-117062285D01*
X110704381Y-117062285D01*
X111704381Y-116586095D02*
X110704381Y-116586095D01*
X110704381Y-116348000D01*
X110752000Y-116205142D01*
X110847238Y-116109904D01*
X110942476Y-116062285D01*
X111132952Y-116014666D01*
X111275810Y-116014666D01*
X111466286Y-116062285D01*
X111561524Y-116109904D01*
X111656762Y-116205142D01*
X111704381Y-116348000D01*
X111704381Y-116586095D01*
X156249619Y-116871905D02*
X156249619Y-117490953D01*
X155868667Y-117157619D01*
X155868667Y-117300477D01*
X155821048Y-117395715D01*
X155773429Y-117443334D01*
X155678190Y-117490953D01*
X155440095Y-117490953D01*
X155344857Y-117443334D01*
X155297238Y-117395715D01*
X155249619Y-117300477D01*
X155249619Y-117014762D01*
X155297238Y-116919524D01*
X155344857Y-116871905D01*
X156249619Y-117776667D02*
X155249619Y-118110000D01*
X156249619Y-118443334D01*
X156249619Y-118681429D02*
X156249619Y-119300477D01*
X155868667Y-118967143D01*
X155868667Y-119110001D01*
X155821048Y-119205239D01*
X155773429Y-119252858D01*
X155678190Y-119300477D01*
X155440095Y-119300477D01*
X155344857Y-119252858D01*
X155297238Y-119205239D01*
X155249619Y-119110001D01*
X155249619Y-118824286D01*
X155297238Y-118729048D01*
X155344857Y-118681429D01*
X158742000Y-117348096D02*
X158789619Y-117252858D01*
X158789619Y-117110001D01*
X158742000Y-116967143D01*
X158646762Y-116871905D01*
X158551524Y-116824286D01*
X158361048Y-116776667D01*
X158218190Y-116776667D01*
X158027714Y-116824286D01*
X157932476Y-116871905D01*
X157837238Y-116967143D01*
X157789619Y-117110001D01*
X157789619Y-117205239D01*
X157837238Y-117348096D01*
X157884857Y-117395715D01*
X158218190Y-117395715D01*
X158218190Y-117205239D01*
X157789619Y-117824286D02*
X158789619Y-117824286D01*
X157789619Y-118395715D01*
X158789619Y-118395715D01*
X157789619Y-118871905D02*
X158789619Y-118871905D01*
X158789619Y-119110000D01*
X158742000Y-119252858D01*
X158646762Y-119348096D01*
X158551524Y-119395715D01*
X158361048Y-119443334D01*
X158218190Y-119443334D01*
X158027714Y-119395715D01*
X157932476Y-119348096D01*
X157837238Y-119252858D01*
X157789619Y-119110000D01*
X157789619Y-118871905D01*
D11*
X166429715Y-123614571D02*
X166429715Y-122114571D01*
X167072572Y-122257429D02*
X167144001Y-122186000D01*
X167286858Y-122114571D01*
X167644001Y-122114571D01*
X167786858Y-122186000D01*
X167858287Y-122257429D01*
X167929715Y-122400286D01*
X167929715Y-122543143D01*
X167858287Y-122757429D01*
X167001144Y-123614571D01*
X167929715Y-123614571D01*
X169429715Y-123471714D02*
X169358286Y-123543143D01*
X169144000Y-123614571D01*
X169001143Y-123614571D01*
X168786858Y-123543143D01*
X168644000Y-123400286D01*
X168572572Y-123257429D01*
X168501143Y-122971714D01*
X168501143Y-122757429D01*
X168572572Y-122471714D01*
X168644000Y-122328857D01*
X168786858Y-122186000D01*
X169001143Y-122114571D01*
X169144000Y-122114571D01*
X169358286Y-122186000D01*
X169429715Y-122257429D01*
D10*
X116324191Y-111037714D02*
X116324191Y-111704381D01*
X116086095Y-110656762D02*
X115848000Y-111371048D01*
X116467048Y-111371048D01*
X116848000Y-111609143D02*
X116895619Y-111656762D01*
X116848000Y-111704381D01*
X116800381Y-111656762D01*
X116848000Y-111609143D01*
X116848000Y-111704381D01*
X117228952Y-110704381D02*
X117895619Y-110704381D01*
X117467047Y-111704381D01*
X118276571Y-111704381D02*
X118276571Y-110704381D01*
X118848000Y-111704381D02*
X118419428Y-111132952D01*
X118848000Y-110704381D02*
X118276571Y-111275810D01*
D11*
X110093716Y-114978571D02*
X110093716Y-113478571D01*
X110450859Y-113478571D01*
X110665144Y-113550000D01*
X110808002Y-113692857D01*
X110879430Y-113835714D01*
X110950859Y-114121429D01*
X110950859Y-114335714D01*
X110879430Y-114621429D01*
X110808002Y-114764286D01*
X110665144Y-114907143D01*
X110450859Y-114978571D01*
X110093716Y-114978571D01*
X111522287Y-114907143D02*
X111736573Y-114978571D01*
X112093716Y-114978571D01*
X112236573Y-114907143D01*
X112308002Y-114835714D01*
X112379430Y-114692857D01*
X112379430Y-114550000D01*
X112308002Y-114407143D01*
X112236573Y-114335714D01*
X112093716Y-114264286D01*
X111808002Y-114192857D01*
X111665144Y-114121429D01*
X111593716Y-114050000D01*
X111522287Y-113907143D01*
X111522287Y-113764286D01*
X111593716Y-113621429D01*
X111665144Y-113550000D01*
X111808002Y-113478571D01*
X112165144Y-113478571D01*
X112379430Y-113550000D01*
X113808001Y-114978571D02*
X112950858Y-114978571D01*
X113379430Y-114978571D02*
X113379430Y-113478571D01*
X113236573Y-113692857D01*
X113093715Y-113835714D01*
X112950858Y-113907143D01*
X114665144Y-114121429D02*
X114522286Y-114050000D01*
X114450858Y-113978571D01*
X114379429Y-113835714D01*
X114379429Y-113764286D01*
X114450858Y-113621429D01*
X114522286Y-113550000D01*
X114665144Y-113478571D01*
X114950858Y-113478571D01*
X115093715Y-113550000D01*
X115165144Y-113621429D01*
X115236572Y-113764286D01*
X115236572Y-113835714D01*
X115165144Y-113978571D01*
X115093715Y-114050000D01*
X114950858Y-114121429D01*
X114665144Y-114121429D01*
X114522286Y-114192857D01*
X114450858Y-114264286D01*
X114379429Y-114407143D01*
X114379429Y-114692857D01*
X114450858Y-114835714D01*
X114522286Y-114907143D01*
X114665144Y-114978571D01*
X114950858Y-114978571D01*
X115093715Y-114907143D01*
X115165144Y-114835714D01*
X115236572Y-114692857D01*
X115236572Y-114407143D01*
X115165144Y-114264286D01*
X115093715Y-114192857D01*
X114950858Y-114121429D01*
X116379429Y-114192857D02*
X116593715Y-114264286D01*
X116665143Y-114335714D01*
X116736572Y-114478571D01*
X116736572Y-114692857D01*
X116665143Y-114835714D01*
X116593715Y-114907143D01*
X116450857Y-114978571D01*
X115879429Y-114978571D01*
X115879429Y-113478571D01*
X116379429Y-113478571D01*
X116522286Y-113550000D01*
X116593715Y-113621429D01*
X116665143Y-113764286D01*
X116665143Y-113907143D01*
X116593715Y-114050000D01*
X116522286Y-114121429D01*
X116379429Y-114192857D01*
X115879429Y-114192857D01*
X117308000Y-113621429D02*
X117379429Y-113550000D01*
X117522286Y-113478571D01*
X117879429Y-113478571D01*
X118022286Y-113550000D01*
X118093715Y-113621429D01*
X118165143Y-113764286D01*
X118165143Y-113907143D01*
X118093715Y-114121429D01*
X117236572Y-114978571D01*
X118165143Y-114978571D01*
X119093714Y-113478571D02*
X119236571Y-113478571D01*
X119379428Y-113550000D01*
X119450857Y-113621429D01*
X119522286Y-113764286D01*
X119593714Y-114050000D01*
X119593714Y-114407143D01*
X119522286Y-114692857D01*
X119450857Y-114835714D01*
X119379428Y-114907143D01*
X119236571Y-114978571D01*
X119093714Y-114978571D01*
X118950857Y-114907143D01*
X118879428Y-114835714D01*
X118808000Y-114692857D01*
X118736571Y-114407143D01*
X118736571Y-114050000D01*
X118808000Y-113764286D01*
X118879428Y-113621429D01*
X118950857Y-113550000D01*
X119093714Y-113478571D01*
D12*
X160989914Y-85354912D02*
X162077484Y-85862054D01*
X161884287Y-86276367D01*
X161784198Y-86355795D01*
X161708259Y-86383435D01*
X161580531Y-86386924D01*
X161425165Y-86314476D01*
X161345736Y-86214387D01*
X161318097Y-86138449D01*
X161314607Y-86010721D01*
X161507804Y-85596408D01*
X161618641Y-86846046D02*
X160410323Y-86597849D01*
X161090560Y-87167249D01*
X160217126Y-87012161D01*
X161183948Y-87778248D01*
X159903181Y-87685419D02*
X160990751Y-88192560D01*
X160044868Y-88192839D01*
X160652656Y-88917607D01*
X159565087Y-88410465D01*
X160331731Y-89335409D02*
X160359371Y-89411348D01*
X160362861Y-89539076D01*
X160242113Y-89798020D01*
X160142024Y-89877449D01*
X160066085Y-89905088D01*
X159938357Y-89908578D01*
X159834780Y-89860279D01*
X159703562Y-89736041D01*
X159371889Y-88824778D01*
X159057945Y-89498035D01*
X147781914Y-85354912D02*
X148869484Y-85862054D01*
X148676287Y-86276367D01*
X148576198Y-86355795D01*
X148500259Y-86383435D01*
X148372531Y-86386924D01*
X148217165Y-86314476D01*
X148137736Y-86214387D01*
X148110097Y-86138449D01*
X148106607Y-86010721D01*
X148299804Y-85596408D01*
X148410641Y-86846046D02*
X147202323Y-86597849D01*
X147882560Y-87167249D01*
X147009126Y-87012161D01*
X147975948Y-87778248D01*
X146695181Y-87685419D02*
X147782751Y-88192560D01*
X146836868Y-88192839D01*
X147444656Y-88917607D01*
X146357087Y-88410465D01*
X145849945Y-89498035D02*
X146139740Y-88876566D01*
X145994842Y-89187301D02*
X147082411Y-89694443D01*
X146975343Y-89518416D01*
X146920065Y-89366538D01*
X146916576Y-89238810D01*
D11*
X134584857Y-122678000D02*
X135299143Y-122678000D01*
X134442000Y-123106571D02*
X134942000Y-121606571D01*
X135442000Y-123106571D01*
X135942000Y-123106571D02*
X135942000Y-121606571D01*
X136799143Y-123106571D01*
X136799143Y-121606571D01*
X137299143Y-121606571D02*
X138156286Y-121606571D01*
X137727715Y-123106571D02*
X137727715Y-121606571D01*
X138656286Y-122320857D02*
X139156286Y-122320857D01*
X139370572Y-123106571D02*
X138656286Y-123106571D01*
X138656286Y-121606571D01*
X139370572Y-121606571D01*
X140013429Y-123106571D02*
X140013429Y-121606571D01*
X140870572Y-123106571D01*
X140870572Y-121606571D01*
X141584858Y-123106571D02*
X141584858Y-121606571D01*
X142442001Y-123106571D01*
X142442001Y-121606571D01*
X143084858Y-122678000D02*
X143799144Y-122678000D01*
X142942001Y-123106571D02*
X143442001Y-121606571D01*
X143942001Y-123106571D01*
D13*
X169732000Y-84388000D02*
X169732000Y-81728000D01*
X162052000Y-84388000D02*
X169732000Y-84388000D01*
X162052000Y-81728000D02*
X169732000Y-81728000D01*
X162052000Y-84388000D02*
X162052000Y-81728000D01*
X160782000Y-84388000D02*
X159452000Y-84388000D01*
X159452000Y-84388000D02*
X159452000Y-83058000D01*
X157540000Y-84388000D02*
X157540000Y-81728000D01*
X149860000Y-84388000D02*
X157540000Y-84388000D01*
X149860000Y-81728000D02*
X157540000Y-81728000D01*
X149860000Y-84388000D02*
X149860000Y-81728000D01*
X148590000Y-84388000D02*
X147260000Y-84388000D01*
X147260000Y-84388000D02*
X147260000Y-83058000D01*
X156556000Y-113320000D02*
X156556000Y-112990000D01*
X156556000Y-112990000D02*
X162976000Y-112990000D01*
X162976000Y-112990000D02*
X162976000Y-113320000D01*
X156556000Y-115280000D02*
X156556000Y-115610000D01*
X156556000Y-115610000D02*
X162976000Y-115610000D01*
X162976000Y-115610000D02*
X162976000Y-115280000D01*
X162976000Y-110200000D02*
X162976000Y-110530000D01*
X162976000Y-110530000D02*
X156556000Y-110530000D01*
X156556000Y-110530000D02*
X156556000Y-110200000D01*
X162976000Y-108240000D02*
X162976000Y-107910000D01*
X162976000Y-107910000D02*
X156556000Y-107910000D01*
X156556000Y-107910000D02*
X156556000Y-108240000D01*
X139938000Y-90110000D02*
G75*
G02X137938000Y-90110000I-1000000J0D01*
G01*
X137938000Y-90110000D02*
X136288000Y-90110000D01*
X136288000Y-90110000D02*
X136288000Y-113090000D01*
X136288000Y-113090000D02*
X141588000Y-113090000D01*
X141588000Y-113090000D02*
X141588000Y-90110000D01*
X141588000Y-90110000D02*
X139938000Y-90110000D01*
X153356000Y-94504000D02*
G75*
G02X153356000Y-96504000I0J-1000000D01*
G01*
X153356000Y-96504000D02*
X153356000Y-98154000D01*
X153356000Y-98154000D02*
X163636000Y-98154000D01*
X163636000Y-98154000D02*
X163636000Y-92854000D01*
X163636000Y-92854000D02*
X153356000Y-92854000D01*
X153356000Y-92854000D02*
X153356000Y-94504000D01*
X114392000Y-110272000D02*
X114392000Y-109942000D01*
X114392000Y-109942000D02*
X120812000Y-109942000D01*
X120812000Y-109942000D02*
X120812000Y-110272000D01*
X114392000Y-112232000D02*
X114392000Y-112562000D01*
X114392000Y-112562000D02*
X120812000Y-112562000D01*
X120812000Y-112562000D02*
X120812000Y-112232000D01*
X152206000Y-90110000D02*
X149546000Y-90110000D01*
X152206000Y-120650000D02*
X152206000Y-90110000D01*
X149546000Y-120650000D02*
X149546000Y-90110000D01*
X152206000Y-120650000D02*
X149546000Y-120650000D01*
X152206000Y-121920000D02*
X152206000Y-123250000D01*
X152206000Y-123250000D02*
X150876000Y-123250000D01*
X129346000Y-90110000D02*
X126686000Y-90110000D01*
X129346000Y-120650000D02*
X129346000Y-90110000D01*
X126686000Y-120650000D02*
X126686000Y-90110000D01*
X129346000Y-120650000D02*
X126686000Y-120650000D01*
X129346000Y-121920000D02*
X129346000Y-123250000D01*
X129346000Y-123250000D02*
X128016000Y-123250000D01*
X109414000Y-81474000D02*
X109414000Y-84134000D01*
X127254000Y-81474000D02*
X109414000Y-81474000D01*
X127254000Y-84134000D02*
X109414000Y-84134000D01*
X127254000Y-81474000D02*
X127254000Y-84134000D01*
X128524000Y-81474000D02*
X129854000Y-81474000D01*
X129854000Y-81474000D02*
X129854000Y-82804000D01*
X138744000Y-84134000D02*
X138744000Y-81474000D01*
X136144000Y-84134000D02*
X138744000Y-84134000D01*
X136144000Y-81474000D02*
X138744000Y-81474000D01*
X136144000Y-84134000D02*
X136144000Y-81474000D01*
X134874000Y-84134000D02*
X133544000Y-84134000D01*
X133544000Y-84134000D02*
X133544000Y-82804000D01*
X164652000Y-124012000D02*
X164652000Y-121352000D01*
X156972000Y-124012000D02*
X164652000Y-124012000D01*
X156972000Y-121352000D02*
X164652000Y-121352000D01*
X156972000Y-124012000D02*
X156972000Y-121352000D01*
X155702000Y-124012000D02*
X154372000Y-124012000D01*
X154372000Y-124012000D02*
X154372000Y-122682000D01*
X109922000Y-121352000D02*
X109922000Y-124012000D01*
X115062000Y-121352000D02*
X109922000Y-121352000D01*
X115062000Y-124012000D02*
X109922000Y-124012000D01*
X115062000Y-121352000D02*
X115062000Y-124012000D01*
X116332000Y-121352000D02*
X117662000Y-121352000D01*
X117662000Y-121352000D02*
X117662000Y-122682000D01*
X145832000Y-97952000D02*
X145502000Y-97952000D01*
X145502000Y-97952000D02*
X145502000Y-91532000D01*
X145502000Y-91532000D02*
X145832000Y-91532000D01*
X147792000Y-97952000D02*
X148122000Y-97952000D01*
X148122000Y-97952000D02*
X148122000Y-91532000D01*
X148122000Y-91532000D02*
X147792000Y-91532000D01*
X167422000Y-96936000D02*
X167092000Y-96936000D01*
X167092000Y-96936000D02*
X167092000Y-90516000D01*
X167092000Y-90516000D02*
X167422000Y-90516000D01*
X169382000Y-96936000D02*
X169712000Y-96936000D01*
X169712000Y-96936000D02*
X169712000Y-90516000D01*
X169712000Y-90516000D02*
X169382000Y-90516000D01*
D14*
X157904381Y-83391333D02*
X158618667Y-83391333D01*
X158761524Y-83438953D01*
X158856762Y-83534191D01*
X158904381Y-83677048D01*
X158904381Y-83772286D01*
X157904381Y-82438952D02*
X157904381Y-82915143D01*
X158380571Y-82962762D01*
X158332952Y-82915143D01*
X158285333Y-82819905D01*
X158285333Y-82581809D01*
X158332952Y-82486571D01*
X158380571Y-82438952D01*
X158475810Y-82391333D01*
X158713905Y-82391333D01*
X158809143Y-82438952D01*
X158856762Y-82486571D01*
X158904381Y-82581809D01*
X158904381Y-82819905D01*
X158856762Y-82915143D01*
X158809143Y-82962762D01*
X145712381Y-83391333D02*
X146426667Y-83391333D01*
X146569524Y-83438953D01*
X146664762Y-83534191D01*
X146712381Y-83677048D01*
X146712381Y-83772286D01*
X145712381Y-82486571D02*
X145712381Y-82677048D01*
X145760000Y-82772286D01*
X145807619Y-82819905D01*
X145950476Y-82915143D01*
X146140952Y-82962762D01*
X146521905Y-82962762D01*
X146617143Y-82915143D01*
X146664762Y-82867524D01*
X146712381Y-82772286D01*
X146712381Y-82581809D01*
X146664762Y-82486571D01*
X146617143Y-82438952D01*
X146521905Y-82391333D01*
X146283810Y-82391333D01*
X146188571Y-82438952D01*
X146140952Y-82486571D01*
X146093333Y-82581809D01*
X146093333Y-82772286D01*
X146140952Y-82867524D01*
X146188571Y-82915143D01*
X146283810Y-82962762D01*
X159599334Y-112442381D02*
X159266000Y-111966190D01*
X159027905Y-112442381D02*
X159027905Y-111442381D01*
X159408858Y-111442381D01*
X159504096Y-111490000D01*
X159551715Y-111537619D01*
X159599334Y-111632857D01*
X159599334Y-111775714D01*
X159551715Y-111870952D01*
X159504096Y-111918571D01*
X159408858Y-111966190D01*
X159027905Y-111966190D01*
X160551715Y-112442381D02*
X159980286Y-112442381D01*
X160266000Y-112442381D02*
X160266000Y-111442381D01*
X160170762Y-111585238D01*
X160075524Y-111680476D01*
X159980286Y-111728095D01*
X159599334Y-107386381D02*
X159266000Y-106910190D01*
X159027905Y-107386381D02*
X159027905Y-106386381D01*
X159408858Y-106386381D01*
X159504096Y-106434000D01*
X159551715Y-106481619D01*
X159599334Y-106576857D01*
X159599334Y-106719714D01*
X159551715Y-106814952D01*
X159504096Y-106862571D01*
X159408858Y-106910190D01*
X159027905Y-106910190D01*
X159980286Y-106481619D02*
X160027905Y-106434000D01*
X160123143Y-106386381D01*
X160361239Y-106386381D01*
X160456477Y-106434000D01*
X160504096Y-106481619D01*
X160551715Y-106576857D01*
X160551715Y-106672095D01*
X160504096Y-106814952D01*
X159932667Y-107386381D01*
X160551715Y-107386381D01*
X138176095Y-88562381D02*
X138176095Y-89371905D01*
X138223714Y-89467143D01*
X138271333Y-89514762D01*
X138366571Y-89562381D01*
X138557048Y-89562381D01*
X138652286Y-89514762D01*
X138699905Y-89467143D01*
X138747524Y-89371905D01*
X138747524Y-88562381D01*
X139747524Y-89562381D02*
X139176095Y-89562381D01*
X139461809Y-89562381D02*
X139461809Y-88562381D01*
X139366571Y-88705238D01*
X139271333Y-88800476D01*
X139176095Y-88848095D01*
X164044381Y-96011905D02*
X164853905Y-96011905D01*
X164949143Y-95964286D01*
X164996762Y-95916667D01*
X165044381Y-95821429D01*
X165044381Y-95630952D01*
X164996762Y-95535714D01*
X164949143Y-95488095D01*
X164853905Y-95440476D01*
X164044381Y-95440476D01*
X164139619Y-95011905D02*
X164092000Y-94964286D01*
X164044381Y-94869048D01*
X164044381Y-94630952D01*
X164092000Y-94535714D01*
X164139619Y-94488095D01*
X164234857Y-94440476D01*
X164330095Y-94440476D01*
X164472952Y-94488095D01*
X165044381Y-95059524D01*
X165044381Y-94440476D01*
X117435334Y-109394381D02*
X117102000Y-108918190D01*
X116863905Y-109394381D02*
X116863905Y-108394381D01*
X117244858Y-108394381D01*
X117340096Y-108442000D01*
X117387715Y-108489619D01*
X117435334Y-108584857D01*
X117435334Y-108727714D01*
X117387715Y-108822952D01*
X117340096Y-108870571D01*
X117244858Y-108918190D01*
X116863905Y-108918190D01*
X117768667Y-108394381D02*
X118387715Y-108394381D01*
X118054381Y-108775333D01*
X118197239Y-108775333D01*
X118292477Y-108822952D01*
X118340096Y-108870571D01*
X118387715Y-108965810D01*
X118387715Y-109203905D01*
X118340096Y-109299143D01*
X118292477Y-109346762D01*
X118197239Y-109394381D01*
X117911524Y-109394381D01*
X117816286Y-109346762D01*
X117768667Y-109299143D01*
X150542667Y-123702381D02*
X150542667Y-124416667D01*
X150495047Y-124559524D01*
X150399809Y-124654762D01*
X150256952Y-124702381D01*
X150161714Y-124702381D01*
X151542667Y-124702381D02*
X150971238Y-124702381D01*
X151256952Y-124702381D02*
X151256952Y-123702381D01*
X151161714Y-123845238D01*
X151066476Y-123940476D01*
X150971238Y-123988095D01*
X127682667Y-123702381D02*
X127682667Y-124416667D01*
X127635047Y-124559524D01*
X127539809Y-124654762D01*
X127396952Y-124702381D01*
X127301714Y-124702381D01*
X128111238Y-123797619D02*
X128158857Y-123750000D01*
X128254095Y-123702381D01*
X128492191Y-123702381D01*
X128587429Y-123750000D01*
X128635048Y-123797619D01*
X128682667Y-123892857D01*
X128682667Y-123988095D01*
X128635048Y-124130952D01*
X128063619Y-124702381D01*
X128682667Y-124702381D01*
X130306381Y-83137333D02*
X131020667Y-83137333D01*
X131163524Y-83184953D01*
X131258762Y-83280191D01*
X131306381Y-83423048D01*
X131306381Y-83518286D01*
X130306381Y-82756381D02*
X130306381Y-82137333D01*
X130687333Y-82470667D01*
X130687333Y-82327809D01*
X130734952Y-82232571D01*
X130782571Y-82184952D01*
X130877810Y-82137333D01*
X131115905Y-82137333D01*
X131211143Y-82184952D01*
X131258762Y-82232571D01*
X131306381Y-82327809D01*
X131306381Y-82613524D01*
X131258762Y-82708762D01*
X131211143Y-82756381D01*
X131996381Y-83137333D02*
X132710667Y-83137333D01*
X132853524Y-83184953D01*
X132948762Y-83280191D01*
X132996381Y-83423048D01*
X132996381Y-83518286D01*
X132329714Y-82232571D02*
X132996381Y-82232571D01*
X131948762Y-82470667D02*
X132663048Y-82708762D01*
X132663048Y-82089714D01*
X152824381Y-123015333D02*
X153538667Y-123015333D01*
X153681524Y-123062953D01*
X153776762Y-123158191D01*
X153824381Y-123301048D01*
X153824381Y-123396286D01*
X152824381Y-122634381D02*
X152824381Y-121967714D01*
X153824381Y-122396286D01*
X118114381Y-123015333D02*
X118828667Y-123015333D01*
X118971524Y-123062953D01*
X119066762Y-123158191D01*
X119114381Y-123301048D01*
X119114381Y-123396286D01*
X118542952Y-122396286D02*
X118495333Y-122491524D01*
X118447714Y-122539143D01*
X118352476Y-122586762D01*
X118304857Y-122586762D01*
X118209619Y-122539143D01*
X118162000Y-122491524D01*
X118114381Y-122396286D01*
X118114381Y-122205809D01*
X118162000Y-122110571D01*
X118209619Y-122062952D01*
X118304857Y-122015333D01*
X118352476Y-122015333D01*
X118447714Y-122062952D01*
X118495333Y-122110571D01*
X118542952Y-122205809D01*
X118542952Y-122396286D01*
X118590571Y-122491524D01*
X118638190Y-122539143D01*
X118733429Y-122586762D01*
X118923905Y-122586762D01*
X119019143Y-122539143D01*
X119066762Y-122491524D01*
X119114381Y-122396286D01*
X119114381Y-122205809D01*
X119066762Y-122110571D01*
X119019143Y-122062952D01*
X118923905Y-122015333D01*
X118733429Y-122015333D01*
X118638190Y-122062952D01*
X118590571Y-122110571D01*
X118542952Y-122205809D01*
X144954381Y-94908666D02*
X144478190Y-95242000D01*
X144954381Y-95480095D02*
X143954381Y-95480095D01*
X143954381Y-95099142D01*
X144002000Y-95003904D01*
X144049619Y-94956285D01*
X144144857Y-94908666D01*
X144287714Y-94908666D01*
X144382952Y-94956285D01*
X144430571Y-95003904D01*
X144478190Y-95099142D01*
X144478190Y-95480095D01*
X144287714Y-94051523D02*
X144954381Y-94051523D01*
X143906762Y-94289619D02*
X144621048Y-94527714D01*
X144621048Y-93908666D01*
X166544381Y-93892666D02*
X166068190Y-94226000D01*
X166544381Y-94464095D02*
X165544381Y-94464095D01*
X165544381Y-94083142D01*
X165592000Y-93987904D01*
X165639619Y-93940285D01*
X165734857Y-93892666D01*
X165877714Y-93892666D01*
X165972952Y-93940285D01*
X166020571Y-93987904D01*
X166068190Y-94083142D01*
X166068190Y-94464095D01*
X165544381Y-92987904D02*
X165544381Y-93464095D01*
X166020571Y-93511714D01*
X165972952Y-93464095D01*
X165925333Y-93368857D01*
X165925333Y-93130761D01*
X165972952Y-93035523D01*
X166020571Y-92987904D01*
X166115810Y-92940285D01*
X166353905Y-92940285D01*
X166449143Y-92987904D01*
X166496762Y-93035523D01*
X166544381Y-93130761D01*
X166544381Y-93368857D01*
X166496762Y-93464095D01*
X166449143Y-93511714D01*
M02*
